<svg width="11" height="18" viewBox="0 0 11 18" fill="none" xmlns="http://www.w3.org/2000/svg">
<path d="M0.282368 9.70236L8.16123 17.7124C8.34345 17.8979 8.58671 18 8.84609 18C9.10547 18 9.34873 17.8979 9.53096 17.7124L10.1112 17.1227C10.4887 16.7384 10.4887 16.1138 10.1112 15.7301L3.49511 9.00373L10.1185 2.26988C10.3008 2.08447 10.4014 1.8373 10.4014 1.57374C10.4014 1.30989 10.3008 1.06272 10.1185 0.877163L9.5383 0.287558C9.35593 0.102144 9.11281 1.11396e-07 8.85343 1.33819e-07C8.59405 1.56243e-07 8.35079 0.102144 8.16856 0.287558L0.282368 8.30496C0.0997068 8.49096 -0.0006188 8.7393 -4.37107e-05 9.00329C-0.000618753 9.26832 0.0997069 9.51651 0.282368 9.70236Z" fill="black"/>
</svg>
