<svg width="12" height="13" viewBox="0 0 12 13" fill="none" xmlns="http://www.w3.org/2000/svg">
<g clip-path="url(#clip0)">
<path d="M11.2279 5.34046C11.0876 5.22691 10.854 5.03748 10.8247 4.94772C10.795 4.85448 10.8719 4.55448 10.918 4.37596C11.0286 3.94504 11.1664 3.40898 10.8575 2.98698C10.55 2.56797 9.99713 2.53126 9.55282 2.5015C9.36884 2.48861 9.0604 2.46826 8.98254 2.41173C8.9037 2.35471 8.78517 2.06263 8.71427 1.88758C8.53922 1.45368 8.33988 0.961749 7.85341 0.805046C7.36943 0.646867 6.92709 0.927038 6.53782 1.17348C6.36623 1.28158 6.10788 1.44524 5.99979 1.44524C5.89615 1.44524 5.64077 1.27912 5.47118 1.16903C5.09679 0.925538 4.62867 0.624038 4.13527 0.791663C3.64978 0.956804 3.45244 1.44573 3.27738 1.87616C3.20698 2.04972 3.08993 2.33931 3.00961 2.39833C2.93126 2.45634 2.61736 2.47717 2.42991 2.48957C1.9613 2.5213 1.4302 2.55702 1.13168 2.97951C0.838617 3.39456 0.970008 3.90632 1.08605 4.35808C1.13168 4.53759 1.20902 4.8381 1.18125 4.92784C1.15151 5.01362 0.920414 5.20356 0.782555 5.31712C0.433898 5.60479 0 5.9623 0 6.49787C0 7.02995 0.425484 7.38353 0.767133 7.66717C0.915398 7.79015 1.13904 7.9761 1.1693 8.06835C1.19904 8.15959 1.1217 8.45612 1.07508 8.63317C0.962016 9.06805 0.820688 9.60958 1.14152 10.035C1.45444 10.4486 2.00487 10.4853 2.4477 10.5151C2.63168 10.528 2.93963 10.5478 3.01798 10.6048C3.09633 10.6619 3.21436 10.9534 3.28526 11.1285C3.4608 11.5624 3.65965 12.0543 4.14661 12.2115C4.2443 12.2437 4.341 12.2576 4.43522 12.2576C4.80813 12.2576 5.15227 12.0395 5.4627 11.8441C5.63377 11.736 5.89165 11.5723 5.99974 11.5723C6.10537 11.5723 6.35925 11.734 6.52688 11.8411C6.89878 12.0776 7.36294 12.3742 7.85536 12.2056C8.34033 12.0404 8.53769 11.552 8.71275 11.1206C8.78316 10.9475 8.9002 10.6574 8.98052 10.5984C9.05937 10.5404 9.37127 10.5196 9.55774 10.5072C10.0229 10.4754 10.5505 10.4402 10.8535 10.0242C11.1585 9.60613 11.0276 9.08891 10.912 8.63319C10.8669 8.45516 10.7915 8.15814 10.8188 8.06887C10.8485 7.98309 11.0796 7.79315 11.217 7.67959C11.5661 7.39197 12 7.03394 12 6.49837C12 5.96727 11.5716 5.61965 11.2279 5.34046ZM10.5867 6.91492C10.2966 7.15344 9.99661 7.4009 9.87858 7.75546C9.75809 8.11647 9.85627 8.50326 9.95098 8.87716C9.9971 9.05964 10.0744 9.36461 10.064 9.42759C9.98866 9.48412 9.67774 9.50544 9.49179 9.51735C9.12335 9.54215 8.70581 9.56992 8.39489 9.79801C8.08695 10.0236 7.93767 10.3921 7.79337 10.7481C7.72296 10.9237 7.60395 11.2177 7.55484 11.2624C7.46459 11.2624 7.21219 11.1002 7.06095 11.004C6.74904 10.8057 6.39546 10.5801 6.00023 10.5801C5.60452 10.5801 5.24796 10.8062 4.93259 11.0055C4.77984 11.1017 4.52398 11.2644 4.46944 11.2763C4.39259 11.2212 4.27554 10.9307 4.20513 10.7571C4.05935 10.3966 3.9086 10.0242 3.59768 9.80052C3.28875 9.57787 2.895 9.55159 2.51367 9.5263C2.33466 9.5144 2.00093 9.49209 1.94041 9.45093C1.90966 9.36316 1.98752 9.06316 2.03463 8.88463C2.12637 8.53105 2.23102 8.13039 2.11298 7.76441C1.99446 7.39895 1.67958 7.13662 1.40138 6.90552C1.26551 6.79246 1.0121 6.58171 0.990773 6.50535C1.01309 6.41212 1.27343 6.19741 1.41326 6.08287C1.70334 5.84385 2.00337 5.5964 2.1214 5.24184C2.2429 4.87834 2.14273 4.48858 2.04652 4.1117C1.9999 3.92971 1.92155 3.62523 1.9275 3.56723C2.00337 3.51269 2.3118 3.49185 2.49628 3.47945C2.88356 3.45367 3.28474 3.42639 3.59566 3.19879C3.90361 2.97316 4.05288 2.60521 4.19719 2.24917C4.26759 2.07313 4.38713 1.77955 4.43273 1.73542C4.52447 1.7369 4.77935 1.90253 4.9316 2.00123C5.24599 2.20553 5.60304 2.43712 6.00023 2.43712C6.39546 2.43712 6.753 2.21099 7.06739 2.01215C7.22013 1.91544 7.476 1.7533 7.53056 1.7414C7.60692 1.79645 7.72446 2.08703 7.79487 2.26059C7.94065 2.62061 8.0914 2.99301 8.40232 3.21665C8.71125 3.4398 9.10549 3.46607 9.48734 3.49136C9.67577 3.50425 9.99166 3.52558 10.0507 3.56127C10.0809 3.64855 10.004 3.95005 9.95742 4.12956C9.86667 4.48462 9.76352 4.88678 9.88205 5.25374C10.0016 5.62319 10.3214 5.88252 10.6036 6.11113C10.7325 6.21625 10.97 6.40818 11.0067 6.50041C10.9715 6.59706 10.7221 6.80284 10.5867 6.91492Z" fill="#00BC78"/>
<path d="M8.21733 4.62953C8.00608 4.453 7.69415 4.48176 7.51912 4.69152L5.30795 7.3351L4.36724 6.39491C4.17334 6.20101 3.85993 6.20101 3.66605 6.39491C3.47216 6.5888 3.47216 6.90221 3.66605 7.09608L4.99009 8.42011C5.08281 8.51384 5.20928 8.5654 5.34069 8.5654C5.34763 8.5654 5.35508 8.5654 5.36202 8.56441C5.50185 8.55846 5.63129 8.49401 5.72054 8.38739L8.27929 5.32773C8.45484 5.1175 8.42758 4.80508 8.21733 4.62953Z" fill="#00BC78"/>
</g>
<defs>
<clipPath id="clip0">
<rect width="12" height="12" fill="white" transform="translate(0 0.5)"/>
</clipPath>
</defs>
</svg>
