<svg width="866" height="381" viewBox="0 0 866 381" fill="none" xmlns="http://www.w3.org/2000/svg">
<path d="M88.2885 359V348.64H94.9245V349.879H89.7725V353.204H94.2315V354.443H89.7725V359H88.2885ZM96.3759 359V351.384H97.8389V359H96.3759ZM97.1109 349.9C96.4669 349.9 96.1449 349.62 96.1449 349.06C96.1449 348.794 96.2266 348.586 96.3899 348.437C96.5533 348.283 96.7936 348.206 97.1109 348.206C97.4283 348.206 97.6686 348.283 97.8319 348.437C97.9953 348.586 98.0769 348.794 98.0769 349.06C98.0769 349.62 97.7549 349.9 97.1109 349.9ZM99.9613 359V351.384H101.179L101.284 352.217H101.368C101.989 351.582 102.768 351.265 103.706 351.265C104.192 351.265 104.621 351.356 104.994 351.538C105.372 351.72 105.669 352.016 105.883 352.427C106.098 352.833 106.205 353.377 106.205 354.058V359H104.742V354.135C104.742 353.542 104.614 353.129 104.357 352.896C104.101 352.663 103.751 352.546 103.307 352.546C102.995 352.546 102.663 352.616 102.313 352.756C101.968 352.891 101.672 353.12 101.424 353.442V359H99.9613ZM110.189 359.126C109.452 359.126 108.873 358.937 108.453 358.559C108.038 358.181 107.83 357.665 107.83 357.012C107.83 356.335 108.056 355.806 108.509 355.423C108.966 355.04 109.701 354.805 110.714 354.716L112.303 354.555V354.072C112.303 353.433 112.149 352.999 111.841 352.77C111.533 352.537 111.055 352.42 110.406 352.42C110.117 352.42 109.79 352.446 109.426 352.497C109.062 352.548 108.703 352.632 108.348 352.749V351.601C108.689 351.489 109.064 351.405 109.475 351.349C109.886 351.293 110.271 351.265 110.63 351.265C111.325 351.265 111.902 351.356 112.359 351.538C112.821 351.715 113.164 352.014 113.388 352.434C113.617 352.854 113.731 353.428 113.731 354.156V359H112.52L112.415 358.181H112.331C112.088 358.494 111.778 358.729 111.4 358.888C111.027 359.047 110.623 359.126 110.189 359.126ZM109.293 356.879C109.293 357.663 109.729 358.055 110.602 358.055C110.901 358.055 111.197 357.994 111.491 357.873C111.79 357.752 112.06 357.549 112.303 357.264V355.465L110.84 355.612C110.289 355.668 109.893 355.801 109.65 356.011C109.412 356.221 109.293 356.51 109.293 356.879ZM115.773 359V351.384H116.991L117.096 352.217H117.18C117.8 351.582 118.58 351.265 119.518 351.265C120.003 351.265 120.432 351.356 120.806 351.538C121.184 351.72 121.48 352.016 121.695 352.427C121.909 352.833 122.017 353.377 122.017 354.058V359H120.554V354.135C120.554 353.542 120.425 353.129 120.169 352.896C119.912 352.663 119.562 352.546 119.119 352.546C118.806 352.546 118.475 352.616 118.125 352.756C117.779 352.891 117.483 353.12 117.236 353.442V359H115.773ZM127.218 359.14C126.075 359.14 125.195 358.825 124.579 358.195C123.968 357.56 123.662 356.562 123.662 355.199C123.662 353.827 123.994 352.828 124.656 352.203C125.319 351.578 126.262 351.265 127.484 351.265C127.76 351.265 128.033 351.281 128.303 351.314C128.579 351.347 128.84 351.393 129.087 351.454V352.658C128.593 352.537 128.117 352.476 127.659 352.476C126.815 352.476 126.189 352.681 125.783 353.092C125.377 353.498 125.174 354.193 125.174 355.178C125.174 356.181 125.366 356.891 125.748 357.306C126.131 357.717 126.693 357.922 127.435 357.922C127.673 357.922 127.925 357.901 128.191 357.859C128.457 357.812 128.756 357.738 129.087 357.635V358.832C128.495 359.037 127.872 359.14 127.218 359.14ZM133.824 359.14C132.559 359.14 131.612 358.832 130.982 358.216C130.352 357.595 130.037 356.587 130.037 355.192C130.037 353.876 130.324 352.894 130.898 352.245C131.472 351.592 132.258 351.265 133.257 351.265C134.237 351.265 134.99 351.592 135.518 352.245C136.045 352.898 136.309 353.892 136.309 355.227V355.647H131.514C131.542 356.506 131.754 357.11 132.151 357.46C132.547 357.81 133.168 357.985 134.013 357.985C134.302 357.985 134.605 357.962 134.923 357.915C135.24 357.864 135.571 357.791 135.917 357.698V358.846C135.539 358.949 135.179 359.023 134.839 359.07C134.498 359.117 134.16 359.14 133.824 359.14ZM133.243 352.266C132.715 352.266 132.298 352.448 131.99 352.812C131.686 353.171 131.525 353.808 131.507 354.723H134.923C134.909 353.813 134.757 353.176 134.468 352.812C134.178 352.448 133.77 352.266 133.243 352.266Z" fill="black"/>
<path d="M24.0005 332.894L13.6405 332.894L13.6405 331.382L21.7535 326.062L13.6405 326.062L13.6405 324.662L24.0005 324.662L24.0005 326.174L15.8875 331.494L24.0005 331.494L24.0005 332.894ZM24.1335 318.354C24.1335 319.735 23.7952 320.748 23.1185 321.392C22.4372 322.036 21.3872 322.358 19.9685 322.358L13.6405 322.358L13.6405 320.874L20.1225 320.874C21.0838 320.874 21.7838 320.671 22.2225 320.265C22.6612 319.854 22.8805 319.217 22.8805 318.354C22.8805 317.49 22.6612 316.856 22.2225 316.45C21.7838 316.044 21.0838 315.841 20.1225 315.841L13.6405 315.841L13.6405 314.385L19.9685 314.385C21.3872 314.385 22.4372 314.704 23.1185 315.344C23.7952 315.978 24.1335 316.982 24.1335 318.354ZM24.0005 312.051L13.6405 312.051L13.6405 310.266L21.0395 306.871L13.6405 303.532L13.6405 301.747L24.0005 301.747L24.0005 303.14L15.7265 303.14L22.5445 306.255L22.5445 307.543L15.8455 310.658L24.0005 310.658L24.0005 312.051ZM24.0985 296.694C24.0985 297.114 24.0822 297.552 24.0495 298.01C24.0215 298.467 23.9795 298.917 23.9235 299.361L13.8295 299.361C13.7362 298.917 13.6638 298.444 13.6125 297.94C13.5565 297.436 13.5285 296.913 13.5285 296.372C13.5285 294.93 13.7595 293.884 14.2215 293.236C14.6835 292.582 15.3835 292.256 16.3215 292.256C16.8768 292.256 17.3668 292.4 17.7915 292.69C18.2115 292.974 18.4985 293.422 18.6525 294.034C18.7832 293.357 19.0655 292.844 19.4995 292.494C19.9288 292.139 20.4818 291.962 21.1585 291.962C21.7932 291.962 22.3298 292.118 22.7685 292.431C23.2025 292.743 23.5338 293.245 23.7625 293.936C23.9865 294.626 24.0985 295.546 24.0985 296.694ZM14.6625 296.211C14.6625 296.556 14.6742 296.864 14.6975 297.135C14.7208 297.405 14.7558 297.662 14.8025 297.905L18.1135 297.905L18.1135 296.043C18.1135 295.179 17.9712 294.568 17.6865 294.209C17.3972 293.845 16.9655 293.663 16.3915 293.663C15.7802 293.663 15.3392 293.856 15.0685 294.244C14.7978 294.631 14.6625 295.287 14.6625 296.211ZM22.9645 296.351C22.9645 295.595 22.8968 295 22.7615 294.566C22.6262 294.132 22.4208 293.821 22.1455 293.635C21.8702 293.448 21.5225 293.355 21.1025 293.355C20.4772 293.355 20.0152 293.553 19.7165 293.95C19.4178 294.346 19.2685 294.976 19.2685 295.84L19.2685 297.905L22.8805 297.905C22.9132 297.643 22.9365 297.389 22.9505 297.142C22.9598 296.89 22.9645 296.626 22.9645 296.351ZM24.0005 290.252L13.6405 290.252L13.6405 283.574L14.8655 283.574L14.8655 288.782L18.0785 288.782L18.0785 284.267L19.3035 284.267L19.3035 288.782L22.7755 288.782L22.7755 283.504L24.0005 283.504L24.0005 290.252ZM24.0005 281.758L13.8295 281.758C13.7455 281.343 13.6755 280.893 13.6195 280.407C13.5588 279.917 13.5285 279.399 13.5285 278.853C13.5285 277.449 13.7828 276.401 14.2915 275.71C14.8002 275.015 15.5958 274.667 16.6785 274.667C17.4578 274.667 18.0972 274.873 18.5965 275.283C19.0958 275.694 19.4482 276.289 19.6535 277.068L24.0005 273.848L24.0005 275.514L19.8565 278.552C19.8658 278.683 19.8705 278.821 19.8705 278.965C19.8705 279.227 19.8658 279.46 19.8565 279.665C19.8472 279.871 19.8332 280.081 19.8145 280.295L24.0005 280.295L24.0005 281.758ZM18.7155 278.944C18.7155 277.946 18.5522 277.218 18.2255 276.76C17.8988 276.303 17.3855 276.074 16.6855 276.074C15.9715 276.074 15.4582 276.287 15.1455 276.711C14.8282 277.136 14.6695 277.808 14.6695 278.727C14.6695 279.049 14.6812 279.332 14.7045 279.574C14.7278 279.817 14.7605 280.057 14.8025 280.295L18.6525 280.295C18.6758 280.048 18.6922 279.829 18.7015 279.637C18.7108 279.441 18.7155 279.21 18.7155 278.944ZM24.1335 264.676C24.1335 265.572 23.9492 266.356 23.5805 267.028C23.2072 267.7 22.6285 268.223 21.8445 268.596C21.0605 268.965 20.0525 269.149 18.8205 269.149C17.5885 269.149 16.5805 268.963 15.7965 268.589C15.0125 268.216 14.4362 267.696 14.0675 267.028C13.6942 266.356 13.5075 265.572 13.5075 264.676C13.5075 263.776 13.6942 262.989 14.0675 262.317C14.4408 261.645 15.0195 261.125 15.8035 260.756C16.5828 260.383 17.5885 260.196 18.8205 260.196C20.0525 260.196 21.0605 260.383 21.8445 260.756C22.6238 261.13 23.2002 261.652 23.5735 262.324C23.9468 262.996 24.1335 263.78 24.1335 264.676ZM22.8945 264.676C22.8945 264.074 22.7638 263.554 22.5025 263.115C22.2365 262.672 21.8095 262.331 21.2215 262.093C20.6288 261.851 19.8425 261.729 18.8625 261.729C17.8498 261.729 17.0448 261.851 16.4475 262.093C15.8455 262.331 15.4115 262.672 15.1455 263.115C14.8795 263.559 14.7465 264.079 14.7465 264.676C14.7465 265.274 14.8772 265.794 15.1385 266.237C15.3998 266.676 15.8268 267.017 16.4195 267.259C17.0075 267.502 17.7938 267.623 18.7785 267.623C19.7912 267.623 20.5985 267.502 21.2005 267.259C21.8025 267.017 22.2365 266.676 22.5025 266.237C22.7638 265.794 22.8945 265.274 22.8945 264.676ZM24.0005 258.26L13.6405 258.26L13.6405 251.624L14.8795 251.624L14.8795 256.776L18.2045 256.776L18.2045 252.317L19.4435 252.317L19.4435 256.776L24.0005 256.776L24.0005 258.26ZM24.1335 244.25C24.1335 244.693 24.0962 245.146 24.0215 245.608C23.9515 246.07 23.8465 246.504 23.7065 246.91L22.4605 246.91C22.6098 246.476 22.7218 246.025 22.7965 245.559C22.8665 245.092 22.9015 244.653 22.9015 244.243C22.9015 243.435 22.7568 242.845 22.4675 242.472C22.1782 242.098 21.7605 241.912 21.2145 241.912C20.7478 241.912 20.3908 242.054 20.1435 242.339C19.8962 242.619 19.6815 243.104 19.4995 243.795L19.3385 244.425C19.1098 245.316 18.7645 245.986 18.3025 246.434C17.8405 246.877 17.2268 247.099 16.4615 247.099C15.5422 247.099 14.8212 246.774 14.2985 246.126C13.7712 245.477 13.5075 244.509 13.5075 243.221C13.5075 242.353 13.6102 241.578 13.8155 240.897L15.0615 240.897C14.8468 241.592 14.7395 242.346 14.7395 243.158C14.7395 244.026 14.8865 244.651 15.1805 245.034C15.4698 245.416 15.8712 245.608 16.3845 245.608C16.8325 245.608 17.1802 245.482 17.4275 245.23C17.6748 244.973 17.8825 244.523 18.0505 243.879L18.2115 243.249C18.4542 242.278 18.8088 241.564 19.2755 241.107C19.7375 240.649 20.3512 240.421 21.1165 240.421C22.0685 240.421 22.8105 240.757 23.3425 241.429C23.8698 242.096 24.1335 243.036 24.1335 244.25ZM24.1335 234.745C24.1335 236.126 23.7952 237.139 23.1185 237.783C22.4372 238.427 21.3872 238.749 19.9685 238.749L13.6405 238.749L13.6405 237.265L20.1225 237.265C21.0838 237.265 21.7838 237.062 22.2225 236.656C22.6612 236.245 22.8805 235.608 22.8805 234.745C22.8805 233.881 22.6612 233.247 22.2225 232.841C21.7838 232.435 21.0838 232.232 20.1225 232.232L13.6405 232.232L13.6405 230.776L19.9685 230.776C21.3872 230.776 22.4372 231.095 23.1185 231.735C23.7952 232.369 24.1335 233.373 24.1335 234.745ZM24.0915 225.901C24.0915 226.302 24.0798 226.715 24.0565 227.14C24.0332 227.56 23.9935 228.003 23.9375 228.47L13.8295 228.47C13.7361 228.031 13.6638 227.56 13.6125 227.056C13.5611 226.552 13.5355 226.062 13.5355 225.586C13.5355 223.827 13.9671 222.499 14.8305 221.603C15.6891 220.702 17.0191 220.252 18.8205 220.252C20.6591 220.252 21.9985 220.726 22.8385 221.673C23.6738 222.616 24.0915 224.025 24.0915 225.901ZM22.8525 225.565C22.8525 224.3 22.5398 223.353 21.9145 222.723C21.2891 222.093 20.2555 221.778 18.8135 221.778C17.3901 221.778 16.3611 222.088 15.7265 222.709C15.0871 223.33 14.7675 224.263 14.7675 225.509C14.7675 225.738 14.7792 225.98 14.8025 226.237C14.8258 226.489 14.8561 226.739 14.8935 226.986L22.7755 226.986C22.8035 226.762 22.8245 226.536 22.8385 226.307C22.8478 226.078 22.8525 225.831 22.8525 225.565ZM24.0005 218.308L13.6405 218.308L13.6405 211.63L14.8655 211.63L14.8655 216.838L18.0785 216.838L18.0785 212.323L19.3035 212.323L19.3035 216.838L22.7755 216.838L22.7755 211.56L24.0005 211.56L24.0005 218.308ZM24.0005 209.815L13.6405 209.815L13.6405 208.303L21.7535 202.983L13.6405 202.983L13.6405 201.583L24.0005 201.583L24.0005 203.095L15.8875 208.415L24.0005 208.415L24.0005 209.815ZM24.0005 196.85L14.9075 196.85L14.9075 200.238L13.6405 200.238L13.6405 191.964L14.9075 191.964L14.9075 195.359L24.0005 195.359L24.0005 196.85ZM24.1335 188.544C24.1335 188.988 24.0961 189.44 24.0215 189.902C23.9515 190.364 23.8465 190.798 23.7065 191.204L22.4605 191.204C22.6098 190.77 22.7218 190.32 22.7965 189.853C22.8665 189.387 22.9015 188.948 22.9015 188.537C22.9015 187.73 22.7568 187.14 22.4675 186.766C22.1781 186.393 21.7605 186.206 21.2145 186.206C20.7478 186.206 20.3908 186.349 20.1435 186.633C19.8961 186.913 19.6815 187.399 19.4995 188.089L19.3385 188.719C19.1098 189.611 18.7645 190.28 18.3025 190.728C17.8405 191.172 17.2268 191.393 16.4615 191.393C15.5421 191.393 14.8211 191.069 14.2985 190.42C13.7711 189.772 13.5075 188.803 13.5075 187.515C13.5075 186.647 13.6101 185.873 13.8155 185.191L15.0615 185.191C14.8468 185.887 14.7395 186.64 14.7395 187.452C14.7395 188.32 14.8865 188.946 15.1805 189.328C15.4698 189.711 15.8711 189.902 16.3845 189.902C16.8325 189.902 17.1801 189.776 17.4275 189.524C17.6748 189.268 17.8825 188.817 18.0505 188.173L18.2115 187.543C18.4541 186.573 18.8088 185.859 19.2755 185.401C19.7375 184.944 20.3511 184.715 21.1165 184.715C22.0685 184.715 22.8105 185.051 23.3425 185.723C23.8698 186.391 24.1335 187.331 24.1335 188.544Z" fill="#7C7C7C"/>
<line x1="61.5" y1="337" x2="61.5" y2="51" stroke="#CCCCCC"/>
<line x1="62" y1="336.5" x2="866" y2="336.5" stroke="#CCCCCC"/>
<line x1="62" y1="283.5" x2="866" y2="283.5" stroke="#CCCCCC" stroke-dasharray="5 2"/>
<line x1="62" y1="230.5" x2="866" y2="230.5" stroke="#CCCCCC" stroke-dasharray="5 2"/>
<line x1="62" y1="177.5" x2="866" y2="177.5" stroke="#CCCCCC" stroke-dasharray="5 2"/>
<line x1="62" y1="124.5" x2="866" y2="124.5" stroke="#CCCCCC" stroke-dasharray="5 2"/>
<line x1="62" y1="71.5" x2="866" y2="71.5001" stroke="#CCCCCC" stroke-dasharray="5 2"/>
<path d="M52.5383 334.133C51.7776 334.133 51.1196 333.956 50.5643 333.601C50.0136 333.242 49.5866 332.672 49.2833 331.893C48.9846 331.114 48.8353 330.089 48.8353 328.82C48.8353 327.551 48.9846 326.526 49.2833 325.747C49.5819 324.968 50.0066 324.401 50.5573 324.046C51.1126 323.687 51.7729 323.507 52.5383 323.507C53.3036 323.507 53.9639 323.687 54.5193 324.046C55.0746 324.401 55.5016 324.968 55.8003 325.747C56.0989 326.526 56.2483 327.551 56.2483 328.82C56.2483 330.089 56.0966 331.114 55.7933 331.893C55.4946 332.672 55.0676 333.242 54.5123 333.601C53.9569 333.956 53.2989 334.133 52.5383 334.133ZM52.5383 332.887C52.9956 332.887 53.3899 332.766 53.7213 332.523C54.0573 332.28 54.3163 331.865 54.4983 331.277C54.6803 330.684 54.7713 329.87 54.7713 328.834C54.7713 327.789 54.6803 326.97 54.4983 326.377C54.3163 325.784 54.0573 325.367 53.7213 325.124C53.3899 324.877 52.9956 324.753 52.5383 324.753C52.0809 324.753 51.6843 324.874 51.3483 325.117C51.0169 325.36 50.7603 325.777 50.5783 326.37C50.3963 326.958 50.3053 327.77 50.3053 328.806C50.3053 329.851 50.3963 330.67 50.5783 331.263C50.7603 331.856 51.0169 332.276 51.3483 332.523C51.6843 332.766 52.0809 332.887 52.5383 332.887Z" fill="black"/>
<path d="M41.3106 281V280.195L44.2436 276.359C44.7336 275.724 45.0766 275.188 45.2726 274.749C45.4733 274.306 45.5736 273.881 45.5736 273.475C45.5736 272.864 45.3986 272.423 45.0486 272.152C44.7033 271.877 44.1713 271.739 43.4526 271.739C42.6359 271.739 41.8823 271.874 41.1916 272.145V270.899C41.4949 270.782 41.8636 270.689 42.2976 270.619C42.7363 270.544 43.1679 270.507 43.5926 270.507C44.7079 270.507 45.5619 270.733 46.1546 271.186C46.7519 271.639 47.0506 272.357 47.0506 273.342C47.0506 273.888 46.9363 274.429 46.7076 274.966C46.4836 275.503 46.0823 276.14 45.5036 276.877L43.2776 279.747H47.5896V281H41.3106ZM52.5383 281.133C51.7776 281.133 51.1196 280.956 50.5643 280.601C50.0136 280.242 49.5866 279.672 49.2833 278.893C48.9846 278.114 48.8353 277.089 48.8353 275.82C48.8353 274.551 48.9846 273.526 49.2833 272.747C49.5819 271.968 50.0066 271.401 50.5573 271.046C51.1126 270.687 51.7729 270.507 52.5383 270.507C53.3036 270.507 53.9639 270.687 54.5193 271.046C55.0746 271.401 55.5016 271.968 55.8003 272.747C56.0989 273.526 56.2483 274.551 56.2483 275.82C56.2483 277.089 56.0966 278.114 55.7933 278.893C55.4946 279.672 55.0676 280.242 54.5123 280.601C53.9569 280.956 53.2989 281.133 52.5383 281.133ZM52.5383 279.887C52.9956 279.887 53.3899 279.766 53.7213 279.523C54.0573 279.28 54.3163 278.865 54.4983 278.277C54.6803 277.684 54.7713 276.87 54.7713 275.834C54.7713 274.789 54.6803 273.97 54.4983 273.377C54.3163 272.784 54.0573 272.367 53.7213 272.124C53.3899 271.877 52.9956 271.753 52.5383 271.753C52.0809 271.753 51.6843 271.874 51.3483 272.117C51.0169 272.36 50.7603 272.777 50.5783 273.37C50.3963 273.958 50.3053 274.77 50.3053 275.806C50.3053 276.851 50.3963 277.67 50.5783 278.263C50.7603 278.856 51.0169 279.276 51.3483 279.523C51.6843 279.766 52.0809 279.887 52.5383 279.887Z" fill="black"/>
<path d="M39.8254 225.627V224.808L43.7174 217.64H45.1734L41.4984 224.444H44.9284L45.0964 221.14H46.2794V224.444H47.7074V225.627H46.2794V228H44.9284V225.627H39.8254ZM52.5383 228.133C51.7776 228.133 51.1196 227.956 50.5643 227.601C50.0136 227.242 49.5866 226.672 49.2833 225.893C48.9846 225.114 48.8353 224.089 48.8353 222.82C48.8353 221.551 48.9846 220.526 49.2833 219.747C49.5819 218.968 50.0066 218.401 50.5573 218.046C51.1126 217.687 51.7729 217.507 52.5383 217.507C53.3036 217.507 53.9639 217.687 54.5193 218.046C55.0746 218.401 55.5016 218.968 55.8003 219.747C56.0989 220.526 56.2483 221.551 56.2483 222.82C56.2483 224.089 56.0966 225.114 55.7933 225.893C55.4946 226.672 55.0676 227.242 54.5123 227.601C53.9569 227.956 53.2989 228.133 52.5383 228.133ZM52.5383 226.887C52.9956 226.887 53.3899 226.766 53.7213 226.523C54.0573 226.28 54.3163 225.865 54.4983 225.277C54.6803 224.684 54.7713 223.87 54.7713 222.834C54.7713 221.789 54.6803 220.97 54.4983 220.377C54.3163 219.784 54.0573 219.367 53.7213 219.124C53.3899 218.877 52.9956 218.753 52.5383 218.753C52.0809 218.753 51.6843 218.874 51.3483 219.117C51.0169 219.36 50.7603 219.777 50.5783 220.37C50.3963 220.958 50.3053 221.77 50.3053 222.806C50.3053 223.851 50.3963 224.67 50.5783 225.263C50.7603 225.856 51.0169 226.276 51.3483 226.523C51.6843 226.766 52.0809 226.887 52.5383 226.887Z" fill="black"/>
<path d="M44.2318 175.133C43.4898 175.133 42.8364 174.97 42.2718 174.643C41.7118 174.312 41.2754 173.782 40.9628 173.054C40.6501 172.321 40.4938 171.355 40.4938 170.156C40.4938 168.215 40.8881 166.789 41.6768 165.879C42.4701 164.964 43.6018 164.507 45.0718 164.507C45.4171 164.507 45.7578 164.53 46.0938 164.577C46.4298 164.624 46.7401 164.703 47.0248 164.815V166.005C46.7401 165.893 46.4321 165.811 46.1008 165.76C45.7741 165.709 45.4498 165.683 45.1278 165.683C44.0871 165.683 43.3008 166 42.7688 166.635C42.2368 167.265 41.9638 168.278 41.9498 169.673C42.2438 169.449 42.5984 169.274 43.0138 169.148C43.4291 169.022 43.8561 168.959 44.2948 168.959C44.9201 168.959 45.4754 169.069 45.9608 169.288C46.4461 169.507 46.8264 169.843 47.1018 170.296C47.3818 170.744 47.5218 171.316 47.5218 172.011C47.5218 173.024 47.2184 173.798 46.6118 174.335C46.0051 174.867 45.2118 175.133 44.2318 175.133ZM44.0288 170.079C43.6834 170.079 43.3241 170.135 42.9508 170.247C42.5774 170.354 42.2461 170.532 41.9568 170.779C41.9848 171.6 42.0968 172.247 42.2928 172.718C42.4888 173.189 42.7524 173.523 43.0838 173.719C43.4198 173.91 43.8071 174.006 44.2458 174.006C44.7918 174.006 45.2444 173.852 45.6038 173.544C45.9678 173.231 46.1498 172.734 46.1498 172.053C46.1498 171.367 45.9561 170.868 45.5688 170.555C45.1861 170.238 44.6728 170.079 44.0288 170.079ZM52.5383 175.133C51.7776 175.133 51.1196 174.956 50.5643 174.601C50.0136 174.242 49.5866 173.672 49.2833 172.893C48.9846 172.114 48.8353 171.089 48.8353 169.82C48.8353 168.551 48.9846 167.526 49.2833 166.747C49.5819 165.968 50.0066 165.401 50.5573 165.046C51.1126 164.687 51.7729 164.507 52.5383 164.507C53.3036 164.507 53.9639 164.687 54.5193 165.046C55.0746 165.401 55.5016 165.968 55.8003 166.747C56.0989 167.526 56.2483 168.551 56.2483 169.82C56.2483 171.089 56.0966 172.114 55.7933 172.893C55.4946 173.672 55.0676 174.242 54.5123 174.601C53.9569 174.956 53.2989 175.133 52.5383 175.133ZM52.5383 173.887C52.9956 173.887 53.3899 173.766 53.7213 173.523C54.0573 173.28 54.3163 172.865 54.4983 172.277C54.6803 171.684 54.7713 170.87 54.7713 169.834C54.7713 168.789 54.6803 167.97 54.4983 167.377C54.3163 166.784 54.0573 166.367 53.7213 166.124C53.3899 165.877 52.9956 165.753 52.5383 165.753C52.0809 165.753 51.6843 165.874 51.3483 166.117C51.0169 166.36 50.7603 166.777 50.5783 167.37C50.3963 167.958 50.3053 168.77 50.3053 169.806C50.3053 170.851 50.3963 171.67 50.5783 172.263C50.7603 172.856 51.0169 173.276 51.3483 173.523C51.6843 173.766 52.0809 173.887 52.5383 173.887Z" fill="black"/>
<path d="M43.4648 122.133C42.1722 122.133 41.2038 121.888 40.5598 121.398C39.9205 120.908 39.6008 120.245 39.6008 119.41C39.6008 118.803 39.7712 118.274 40.1118 117.821C40.4525 117.364 40.9308 117.009 41.5468 116.757C40.9588 116.458 40.5412 116.104 40.2938 115.693C40.0465 115.282 39.9228 114.806 39.9228 114.265C39.9228 113.43 40.2285 112.762 40.8398 112.263C41.4512 111.759 42.3285 111.507 43.4718 111.507C44.5452 111.507 45.3828 111.74 45.9848 112.207C46.5915 112.674 46.8948 113.313 46.8948 114.125C46.8948 114.671 46.7548 115.161 46.4748 115.595C46.1995 116.029 45.7678 116.388 45.1798 116.673C45.9265 116.972 46.4515 117.331 46.7548 117.751C47.0628 118.171 47.2168 118.68 47.2168 119.277C47.2168 120.117 46.8972 120.803 46.2578 121.335C45.6232 121.867 44.6922 122.133 43.4648 122.133ZM43.9058 116.267C43.9618 116.281 44.0155 116.295 44.0668 116.309C44.6035 116.052 44.9908 115.761 45.2288 115.434C45.4668 115.107 45.5858 114.713 45.5858 114.251C45.5858 113.714 45.4015 113.304 45.0328 113.019C44.6642 112.734 44.1368 112.592 43.4508 112.592C42.7462 112.592 42.2188 112.739 41.8688 113.033C41.5235 113.327 41.3508 113.719 41.3508 114.209C41.3508 114.545 41.4232 114.837 41.5678 115.084C41.7125 115.327 41.9692 115.544 42.3378 115.735C42.7112 115.922 43.2338 116.099 43.9058 116.267ZM41.0148 119.256C41.0148 119.835 41.2202 120.278 41.6308 120.586C42.0415 120.894 42.6552 121.048 43.4718 121.048C44.2418 121.048 44.8228 120.901 45.2148 120.607C45.6115 120.313 45.8098 119.9 45.8098 119.368C45.8098 119.023 45.7328 118.731 45.5788 118.493C45.4248 118.25 45.1612 118.04 44.7878 117.863C44.4192 117.686 43.9105 117.518 43.2618 117.359C43.0238 117.303 42.7998 117.24 42.5898 117.17C42.0672 117.375 41.6728 117.662 41.4068 118.031C41.1455 118.4 41.0148 118.808 41.0148 119.256ZM52.5383 122.133C51.7776 122.133 51.1196 121.956 50.5643 121.601C50.0136 121.242 49.5866 120.672 49.2833 119.893C48.9846 119.114 48.8353 118.089 48.8353 116.82C48.8353 115.551 48.9846 114.526 49.2833 113.747C49.5819 112.968 50.0066 112.401 50.5573 112.046C51.1126 111.687 51.7729 111.507 52.5383 111.507C53.3036 111.507 53.9639 111.687 54.5193 112.046C55.0746 112.401 55.5016 112.968 55.8003 113.747C56.0989 114.526 56.2483 115.551 56.2483 116.82C56.2483 118.089 56.0966 119.114 55.7933 119.893C55.4946 120.672 55.0676 121.242 54.5123 121.601C53.9569 121.956 53.2989 122.133 52.5383 122.133ZM52.5383 120.887C52.9956 120.887 53.3899 120.766 53.7213 120.523C54.0573 120.28 54.3163 119.865 54.4983 119.277C54.6803 118.684 54.7713 117.87 54.7713 116.834C54.7713 115.789 54.6803 114.97 54.4983 114.377C54.3163 113.784 54.0573 113.367 53.7213 113.124C53.3899 112.877 52.9956 112.753 52.5383 112.753C52.0809 112.753 51.6843 112.874 51.3483 113.117C51.0169 113.36 50.7603 113.777 50.5783 114.37C50.3963 114.958 50.3053 115.77 50.3053 116.806C50.3053 117.851 50.3963 118.67 50.5783 119.263C50.7603 119.856 51.0169 120.276 51.3483 120.523C51.6843 120.766 52.0809 120.887 52.5383 120.887Z" fill="black"/>
<path d="M36.1995 69V60.425L33.7075 62.189V60.761L36.7385 58.605H37.6905V69H36.1995ZM43.4705 69.133C42.7099 69.133 42.0519 68.9557 41.4965 68.601C40.9459 68.2417 40.5189 67.6723 40.2155 66.893C39.9169 66.1137 39.7675 65.0893 39.7675 63.82C39.7675 62.5507 39.9169 61.5263 40.2155 60.747C40.5142 59.9677 40.9389 59.4007 41.4895 59.046C42.0449 58.6867 42.7052 58.507 43.4705 58.507C44.2359 58.507 44.8962 58.6867 45.4515 59.046C46.0069 59.4007 46.4339 59.9677 46.7325 60.747C47.0312 61.5263 47.1805 62.5507 47.1805 63.82C47.1805 65.0893 47.0289 66.1137 46.7255 66.893C46.4269 67.6723 45.9999 68.2417 45.4445 68.601C44.8892 68.9557 44.2312 69.133 43.4705 69.133ZM43.4705 67.887C43.9279 67.887 44.3222 67.7657 44.6535 67.523C44.9895 67.2803 45.2485 66.865 45.4305 66.277C45.6125 65.6843 45.7035 64.87 45.7035 63.834C45.7035 62.7887 45.6125 61.9697 45.4305 61.377C45.2485 60.7843 44.9895 60.3667 44.6535 60.124C44.3222 59.8767 43.9279 59.753 43.4705 59.753C43.0132 59.753 42.6165 59.8743 42.2805 60.117C41.9492 60.3597 41.6925 60.7773 41.5105 61.37C41.3285 61.958 41.2375 62.77 41.2375 63.806C41.2375 64.8513 41.3285 65.6703 41.5105 66.263C41.6925 66.8557 41.9492 67.2757 42.2805 67.523C42.6165 67.7657 43.0132 67.887 43.4705 67.887ZM52.5383 69.133C51.7776 69.133 51.1196 68.9557 50.5643 68.601C50.0136 68.2417 49.5866 67.6723 49.2833 66.893C48.9846 66.1137 48.8353 65.0893 48.8353 63.82C48.8353 62.5507 48.9846 61.5263 49.2833 60.747C49.5819 59.9677 50.0066 59.4007 50.5573 59.046C51.1126 58.6867 51.7729 58.507 52.5383 58.507C53.3036 58.507 53.9639 58.6867 54.5193 59.046C55.0746 59.4007 55.5016 59.9677 55.8003 60.747C56.0989 61.5263 56.2483 62.5507 56.2483 63.82C56.2483 65.0893 56.0966 66.1137 55.7933 66.893C55.4946 67.6723 55.0676 68.2417 54.5123 68.601C53.9569 68.9557 53.2989 69.133 52.5383 69.133ZM52.5383 67.887C52.9956 67.887 53.3899 67.7657 53.7213 67.523C54.0573 67.2803 54.3163 66.865 54.4983 66.277C54.6803 65.6843 54.7713 64.87 54.7713 63.834C54.7713 62.7887 54.6803 61.9697 54.4983 61.377C54.3163 60.7843 54.0573 60.3667 53.7213 60.124C53.3899 59.8767 52.9956 59.753 52.5383 59.753C52.0809 59.753 51.6843 59.8743 51.3483 60.117C51.0169 60.3597 50.7603 60.7773 50.5783 61.37C50.3963 61.958 50.3053 62.77 50.3053 63.806C50.3053 64.8513 50.3963 65.6703 50.5783 66.263C50.7603 66.8557 51.0169 67.2757 51.3483 67.523C51.6843 67.7657 52.0809 67.887 52.5383 67.887Z" fill="black"/>
<path d="M207.563 359.098C207.143 359.098 206.705 359.082 206.247 359.049C205.79 359.021 205.34 358.979 204.896 358.923V348.829C205.34 348.736 205.813 348.663 206.317 348.612C206.821 348.556 207.344 348.528 207.885 348.528C209.327 348.528 210.373 348.759 211.021 349.221C211.675 349.683 212.001 350.383 212.001 351.321C212.001 351.876 211.857 352.366 211.567 352.791C211.283 353.211 210.835 353.498 210.223 353.652C210.9 353.783 211.413 354.065 211.763 354.499C212.118 354.928 212.295 355.481 212.295 356.158C212.295 356.793 212.139 357.329 211.826 357.768C211.514 358.202 211.012 358.533 210.321 358.762C209.631 358.986 208.711 359.098 207.563 359.098ZM208.046 349.662C207.701 349.662 207.393 349.674 207.122 349.697C206.852 349.72 206.595 349.755 206.352 349.802V353.113H208.214C209.078 353.113 209.689 352.971 210.048 352.686C210.412 352.397 210.594 351.965 210.594 351.391C210.594 350.78 210.401 350.339 210.013 350.068C209.626 349.797 208.97 349.662 208.046 349.662ZM207.906 357.964C208.662 357.964 209.257 357.896 209.691 357.761C210.125 357.626 210.436 357.42 210.622 357.145C210.809 356.87 210.902 356.522 210.902 356.102C210.902 355.477 210.704 355.015 210.307 354.716C209.911 354.417 209.281 354.268 208.417 354.268H206.352V357.88C206.614 357.913 206.868 357.936 207.115 357.95C207.367 357.959 207.631 357.964 207.906 357.964ZM216.301 359.126C215.82 359.126 215.391 359.037 215.013 358.86C214.64 358.678 214.346 358.384 214.131 357.978C213.916 357.572 213.809 357.031 213.809 356.354V351.384H215.272V356.27C215.272 356.863 215.4 357.273 215.657 357.502C215.918 357.731 216.257 357.845 216.672 357.845C216.98 357.845 217.304 357.775 217.645 357.635C217.99 357.495 218.284 357.269 218.527 356.956V351.384H219.983V359H218.765L218.667 358.188H218.59C218.277 358.501 217.925 358.736 217.533 358.895C217.146 359.049 216.735 359.126 216.301 359.126ZM224.038 359.14C223.226 359.14 222.489 359.035 221.826 358.825V357.698C222.55 357.913 223.285 358.02 224.031 358.02C224.643 358.02 225.081 357.922 225.347 357.726C225.618 357.53 225.753 357.255 225.753 356.9C225.753 356.601 225.674 356.375 225.515 356.221C225.361 356.062 225.1 355.943 224.731 355.864L223.639 355.647C222.935 355.507 222.428 355.262 222.12 354.912C221.817 354.562 221.665 354.105 221.665 353.54C221.665 352.873 221.927 352.327 222.449 351.902C222.972 351.477 223.777 351.265 224.864 351.265C225.2 351.265 225.525 351.286 225.837 351.328C226.155 351.365 226.453 351.421 226.733 351.496V352.623C226.141 352.464 225.529 352.385 224.899 352.385C224.199 352.385 223.716 352.495 223.45 352.714C223.184 352.929 223.051 353.192 223.051 353.505C223.051 353.766 223.124 353.981 223.268 354.149C223.418 354.312 223.677 354.436 224.045 354.52L225.137 354.73C225.833 354.875 226.339 355.113 226.656 355.444C226.978 355.775 227.139 356.24 227.139 356.837C227.139 357.551 226.873 358.113 226.341 358.524C225.814 358.935 225.046 359.14 224.038 359.14ZM228.713 359V351.384H230.176V359H228.713ZM229.448 349.9C228.804 349.9 228.482 349.62 228.482 349.06C228.482 348.794 228.564 348.586 228.727 348.437C228.89 348.283 229.131 348.206 229.448 348.206C229.765 348.206 230.006 348.283 230.169 348.437C230.332 348.586 230.414 348.794 230.414 349.06C230.414 349.62 230.092 349.9 229.448 349.9ZM232.298 359V351.384H233.516L233.621 352.217H233.705C234.326 351.582 235.105 351.265 236.043 351.265C236.529 351.265 236.958 351.356 237.331 351.538C237.709 351.72 238.006 352.016 238.22 352.427C238.435 352.833 238.542 353.377 238.542 354.058V359H237.079V354.135C237.079 353.542 236.951 353.129 236.694 352.896C236.438 352.663 236.088 352.546 235.644 352.546C235.332 352.546 235 352.616 234.65 352.756C234.305 352.891 234.009 353.12 233.761 353.442V359H232.298ZM243.975 359.14C242.71 359.14 241.763 358.832 241.133 358.216C240.503 357.595 240.188 356.587 240.188 355.192C240.188 353.876 240.475 352.894 241.049 352.245C241.623 351.592 242.409 351.265 243.408 351.265C244.388 351.265 245.142 351.592 245.669 352.245C246.196 352.898 246.46 353.892 246.46 355.227V355.647H241.665C241.693 356.506 241.905 357.11 242.302 357.46C242.699 357.81 243.319 357.985 244.164 357.985C244.453 357.985 244.757 357.962 245.074 357.915C245.391 357.864 245.723 357.791 246.068 357.698V358.846C245.69 358.949 245.331 359.023 244.99 359.07C244.649 359.117 244.311 359.14 243.975 359.14ZM243.394 352.266C242.867 352.266 242.449 352.448 242.141 352.812C241.838 353.171 241.677 353.808 241.658 354.723H245.074C245.06 353.813 244.908 353.176 244.619 352.812C244.33 352.448 243.921 352.266 243.394 352.266ZM250.042 359.14C249.23 359.14 248.492 359.035 247.83 358.825V357.698C248.553 357.913 249.288 358.02 250.035 358.02C250.646 358.02 251.085 357.922 251.351 357.726C251.621 357.53 251.757 357.255 251.757 356.9C251.757 356.601 251.677 356.375 251.519 356.221C251.365 356.062 251.103 355.943 250.735 355.864L249.643 355.647C248.938 355.507 248.432 355.262 248.124 354.912C247.82 354.562 247.669 354.105 247.669 353.54C247.669 352.873 247.93 352.327 248.453 351.902C248.975 351.477 249.78 351.265 250.868 351.265C251.204 351.265 251.528 351.286 251.841 351.328C252.158 351.365 252.457 351.421 252.737 351.496V352.623C252.144 352.464 251.533 352.385 250.903 352.385C250.203 352.385 249.72 352.495 249.454 352.714C249.188 352.929 249.055 353.192 249.055 353.505C249.055 353.766 249.127 353.981 249.272 354.149C249.421 354.312 249.68 354.436 250.049 354.52L251.141 354.73C251.836 354.875 252.342 355.113 252.66 355.444C252.982 355.775 253.143 356.24 253.143 356.837C253.143 357.551 252.877 358.113 252.345 358.524C251.817 358.935 251.05 359.14 250.042 359.14ZM256.662 359.14C255.85 359.14 255.113 359.035 254.45 358.825V357.698C255.174 357.913 255.909 358.02 256.655 358.02C257.267 358.02 257.705 357.922 257.971 357.726C258.242 357.53 258.377 357.255 258.377 356.9C258.377 356.601 258.298 356.375 258.139 356.221C257.985 356.062 257.724 355.943 257.355 355.864L256.263 355.647C255.559 355.507 255.052 355.262 254.744 354.912C254.441 354.562 254.289 354.105 254.289 353.54C254.289 352.873 254.551 352.327 255.073 351.902C255.596 351.477 256.401 351.265 257.488 351.265C257.824 351.265 258.149 351.286 258.461 351.328C258.779 351.365 259.077 351.421 259.357 351.496V352.623C258.765 352.464 258.153 352.385 257.523 352.385C256.823 352.385 256.34 352.495 256.074 352.714C255.808 352.929 255.675 353.192 255.675 353.505C255.675 353.766 255.748 353.981 255.892 354.149C256.042 354.312 256.301 354.436 256.669 354.52L257.761 354.73C258.457 354.875 258.963 355.113 259.28 355.444C259.602 355.775 259.763 356.24 259.763 356.837C259.763 357.551 259.497 358.113 258.965 358.524C258.438 358.935 257.67 359.14 256.662 359.14ZM190.47 377V366.64H192.255L195.65 374.039L198.989 366.64H200.774V377H199.381V368.726L196.266 375.544H194.978L191.863 368.845V377H190.47ZM204.994 377.126C204.257 377.126 203.678 376.937 203.258 376.559C202.843 376.181 202.635 375.665 202.635 375.012C202.635 374.335 202.861 373.806 203.314 373.423C203.771 373.04 204.506 372.805 205.519 372.716L207.108 372.555V372.072C207.108 371.433 206.954 370.999 206.646 370.77C206.338 370.537 205.86 370.42 205.211 370.42C204.922 370.42 204.595 370.446 204.231 370.497C203.867 370.548 203.508 370.632 203.153 370.749V369.601C203.494 369.489 203.869 369.405 204.28 369.349C204.691 369.293 205.076 369.265 205.435 369.265C206.13 369.265 206.707 369.356 207.164 369.538C207.626 369.715 207.969 370.014 208.193 370.434C208.422 370.854 208.536 371.428 208.536 372.156V377H207.325L207.22 376.181H207.136C206.893 376.494 206.583 376.729 206.205 376.888C205.832 377.047 205.428 377.126 204.994 377.126ZM204.098 374.879C204.098 375.663 204.534 376.055 205.407 376.055C205.706 376.055 206.002 375.994 206.296 375.873C206.595 375.752 206.865 375.549 207.108 375.264V373.465L205.645 373.612C205.094 373.668 204.698 373.801 204.455 374.011C204.217 374.221 204.098 374.51 204.098 374.879ZM210.577 377V369.384H211.795L211.9 370.217H211.984C212.605 369.582 213.384 369.265 214.322 369.265C214.808 369.265 215.237 369.356 215.61 369.538C215.988 369.72 216.285 370.016 216.499 370.427C216.714 370.833 216.821 371.377 216.821 372.058V377H215.358V372.135C215.358 371.542 215.23 371.129 214.973 370.896C214.717 370.663 214.367 370.546 213.923 370.546C213.611 370.546 213.279 370.616 212.929 370.756C212.584 370.891 212.288 371.12 212.04 371.442V377H210.577ZM220.805 377.126C220.068 377.126 219.489 376.937 219.069 376.559C218.654 376.181 218.446 375.665 218.446 375.012C218.446 374.335 218.673 373.806 219.125 373.423C219.583 373.04 220.318 372.805 221.33 372.716L222.919 372.555V372.072C222.919 371.433 222.765 370.999 222.457 370.77C222.149 370.537 221.671 370.42 221.022 370.42C220.733 370.42 220.406 370.446 220.042 370.497C219.678 370.548 219.319 370.632 218.964 370.749V369.601C219.305 369.489 219.681 369.405 220.091 369.349C220.502 369.293 220.887 369.265 221.246 369.265C221.942 369.265 222.518 369.356 222.975 369.538C223.437 369.715 223.78 370.014 224.004 370.434C224.233 370.854 224.347 371.428 224.347 372.156V377H223.136L223.031 376.181H222.947C222.705 376.494 222.394 376.729 222.016 376.888C221.643 377.047 221.239 377.126 220.805 377.126ZM219.909 374.879C219.909 375.663 220.346 376.055 221.218 376.055C221.517 376.055 221.813 375.994 222.107 375.873C222.406 375.752 222.677 375.549 222.919 375.264V373.465L221.456 373.612C220.906 373.668 220.509 373.801 220.266 374.011C220.028 374.221 219.909 374.51 219.909 374.879ZM228.846 380.22C228.477 380.22 228.085 380.192 227.67 380.136C227.259 380.085 226.872 380.003 226.508 379.891V378.701C226.909 378.822 227.296 378.911 227.67 378.967C228.048 379.028 228.407 379.058 228.748 379.058C229.546 379.058 230.131 378.892 230.505 378.561C230.883 378.23 231.072 377.663 231.072 376.86V376.195H230.995C230.766 376.461 230.477 376.676 230.127 376.839C229.781 377.002 229.382 377.084 228.93 377.084C228.407 377.084 227.924 376.96 227.481 376.713C227.037 376.461 226.68 376.062 226.41 375.516C226.139 374.965 226.004 374.242 226.004 373.346C226.004 370.625 227.338 369.265 230.008 369.265C230.432 369.265 230.869 369.298 231.317 369.363C231.765 369.428 232.171 369.519 232.535 369.636V376.615C232.535 377.898 232.227 378.82 231.611 379.38C230.999 379.94 230.078 380.22 228.846 380.22ZM229.42 375.859C229.723 375.859 230.022 375.798 230.316 375.677C230.614 375.556 230.866 375.367 231.072 375.11V370.56C230.918 370.518 230.736 370.485 230.526 370.462C230.32 370.434 230.108 370.42 229.889 370.42C229.109 370.42 228.514 370.637 228.104 371.071C227.693 371.505 227.488 372.219 227.488 373.213C227.488 373.904 227.569 374.44 227.733 374.823C227.901 375.206 228.129 375.474 228.419 375.628C228.708 375.782 229.042 375.859 229.42 375.859ZM238.052 377.14C236.787 377.14 235.84 376.832 235.21 376.216C234.58 375.595 234.265 374.587 234.265 373.192C234.265 371.876 234.552 370.894 235.126 370.245C235.7 369.592 236.486 369.265 237.485 369.265C238.465 369.265 239.218 369.592 239.746 370.245C240.273 370.898 240.537 371.892 240.537 373.227V373.647H235.742C235.77 374.506 235.982 375.11 236.379 375.46C236.775 375.81 237.396 375.985 238.241 375.985C238.53 375.985 238.833 375.962 239.151 375.915C239.468 375.864 239.799 375.791 240.145 375.698V376.846C239.767 376.949 239.407 377.023 239.067 377.07C238.726 377.117 238.388 377.14 238.052 377.14ZM237.471 370.266C236.943 370.266 236.526 370.448 236.218 370.812C235.914 371.171 235.753 371.808 235.735 372.723H239.151C239.137 371.813 238.985 371.176 238.696 370.812C238.406 370.448 237.998 370.266 237.471 370.266ZM242.173 377V369.384H243.391L243.496 370.224H243.58C244.149 369.585 244.875 369.265 245.757 369.265C246.177 369.265 246.552 369.349 246.884 369.517C247.22 369.68 247.483 369.949 247.675 370.322C248.025 369.939 248.403 369.669 248.809 369.51C249.219 369.347 249.618 369.265 250.006 369.265C250.463 369.265 250.869 369.356 251.224 369.538C251.578 369.72 251.858 370.016 252.064 370.427C252.269 370.833 252.372 371.377 252.372 372.058V377H250.916V372.128C250.916 371.531 250.792 371.118 250.545 370.889C250.302 370.66 249.992 370.546 249.614 370.546C249.348 370.546 249.065 370.609 248.767 370.735C248.468 370.856 248.207 371.071 247.983 371.379C248.006 371.575 248.018 371.787 248.018 372.016V377H246.583V372.128C246.583 371.531 246.466 371.118 246.233 370.889C245.999 370.66 245.694 370.546 245.316 370.546C245.026 370.546 244.728 370.618 244.42 370.763C244.112 370.908 243.85 371.143 243.636 371.47V377H242.173ZM257.814 377.14C256.55 377.14 255.602 376.832 254.972 376.216C254.342 375.595 254.027 374.587 254.027 373.192C254.027 371.876 254.314 370.894 254.888 370.245C255.462 369.592 256.249 369.265 257.247 369.265C258.227 369.265 258.981 369.592 259.508 370.245C260.036 370.898 260.299 371.892 260.299 373.227V373.647H255.504C255.532 374.506 255.745 375.11 256.141 375.46C256.538 375.81 257.159 375.985 258.003 375.985C258.293 375.985 258.596 375.962 258.913 375.915C259.231 375.864 259.562 375.791 259.907 375.698V376.846C259.529 376.949 259.17 377.023 258.829 377.07C258.489 377.117 258.15 377.14 257.814 377.14ZM257.233 370.266C256.706 370.266 256.288 370.448 255.98 370.812C255.677 371.171 255.516 371.808 255.497 372.723H258.913C258.899 371.813 258.748 371.176 258.458 370.812C258.169 370.448 257.761 370.266 257.233 370.266ZM261.935 377V369.384H263.153L263.258 370.217H263.342C263.963 369.582 264.742 369.265 265.68 369.265C266.165 369.265 266.595 369.356 266.968 369.538C267.346 369.72 267.642 370.016 267.857 370.427C268.072 370.833 268.179 371.377 268.179 372.058V377H266.716V372.135C266.716 371.542 266.588 371.129 266.331 370.896C266.074 370.663 265.724 370.546 265.281 370.546C264.968 370.546 264.637 370.616 264.287 370.756C263.942 370.891 263.645 371.12 263.398 371.442V377H261.935ZM273.269 377.133C272.447 377.133 271.81 376.925 271.358 376.51C270.91 376.095 270.686 375.43 270.686 374.515V370.567H269.314V369.384H270.686L270.938 366.64H272.149V369.384H274.417V370.567H272.149V374.277C272.149 374.884 272.268 375.306 272.506 375.544C272.748 375.782 273.119 375.901 273.619 375.901C273.871 375.901 274.167 375.864 274.508 375.789V376.993C274.097 377.086 273.684 377.133 273.269 377.133Z" fill="black"/>
<path d="M325.979 359.133C324.966 359.133 324.094 358.958 323.361 358.608C322.628 358.258 322.064 357.696 321.667 356.921C321.27 356.146 321.072 355.12 321.072 353.841C321.072 351.993 321.513 350.642 322.395 349.788C323.277 348.934 324.509 348.507 326.091 348.507C326.861 348.507 327.605 348.603 328.324 348.794V350.054C327.633 349.863 326.917 349.767 326.175 349.767C325.4 349.767 324.749 349.9 324.222 350.166C323.699 350.427 323.303 350.854 323.032 351.447C322.761 352.04 322.626 352.828 322.626 353.813C322.626 354.83 322.761 355.635 323.032 356.228C323.307 356.821 323.702 357.243 324.215 357.495C324.733 357.747 325.361 357.873 326.098 357.873C326.817 357.873 327.559 357.749 328.324 357.502V358.762C327.983 358.879 327.612 358.97 327.211 359.035C326.814 359.1 326.404 359.133 325.979 359.133ZM332.439 359.14C331.407 359.14 330.584 358.825 329.968 358.195C329.356 357.56 329.051 356.564 329.051 355.206C329.051 353.843 329.354 352.847 329.961 352.217C330.567 351.582 331.393 351.265 332.439 351.265C333.484 351.265 334.31 351.582 334.917 352.217C335.523 352.847 335.827 353.841 335.827 355.199C335.827 356.552 335.519 357.549 334.903 358.188C334.291 358.823 333.47 359.14 332.439 359.14ZM332.439 357.985C332.831 357.985 333.169 357.901 333.454 357.733C333.738 357.56 333.958 357.273 334.112 356.872C334.266 356.466 334.343 355.913 334.343 355.213C334.343 354.504 334.266 353.946 334.112 353.54C333.958 353.134 333.738 352.847 333.454 352.679C333.169 352.506 332.831 352.42 332.439 352.42C332.047 352.42 331.708 352.506 331.424 352.679C331.139 352.847 330.92 353.132 330.766 353.533C330.612 353.934 330.535 354.485 330.535 355.185C330.535 355.894 330.612 356.452 330.766 356.858C330.92 357.264 331.139 357.553 331.424 357.726C331.708 357.899 332.047 357.985 332.439 357.985ZM337.56 359V351.384H338.778L338.883 352.224H338.967C339.537 351.585 340.262 351.265 341.144 351.265C341.564 351.265 341.94 351.349 342.271 351.517C342.607 351.68 342.871 351.949 343.062 352.322C343.412 351.939 343.79 351.669 344.196 351.51C344.607 351.347 345.006 351.265 345.393 351.265C345.851 351.265 346.257 351.356 346.611 351.538C346.966 351.72 347.246 352.016 347.451 352.427C347.657 352.833 347.759 353.377 347.759 354.058V359H346.303V354.128C346.303 353.531 346.18 353.118 345.932 352.889C345.69 352.66 345.379 352.546 345.001 352.546C344.735 352.546 344.453 352.609 344.154 352.735C343.856 352.856 343.594 353.071 343.37 353.379C343.394 353.575 343.405 353.787 343.405 354.016V359H341.97V354.128C341.97 353.531 341.854 353.118 341.62 352.889C341.387 352.66 341.081 352.546 340.703 352.546C340.414 352.546 340.115 352.618 339.807 352.763C339.499 352.908 339.238 353.143 339.023 353.47V359H337.56ZM349.8 362.08V351.384H351.039L351.137 352.217H351.214C351.438 351.932 351.727 351.704 352.082 351.531C352.436 351.354 352.84 351.265 353.293 351.265C353.843 351.265 354.347 351.389 354.805 351.636C355.267 351.883 355.635 352.285 355.911 352.84C356.191 353.391 356.331 354.128 356.331 355.052C356.331 356.41 355.995 357.43 355.323 358.111C354.655 358.792 353.678 359.133 352.39 359.133C352.194 359.133 351.998 359.124 351.802 359.105C351.606 359.091 351.426 359.072 351.263 359.049V362.08H349.8ZM352.404 357.978C353.211 357.978 353.82 357.761 354.231 357.327C354.641 356.893 354.847 356.174 354.847 355.171C354.847 354.476 354.763 353.934 354.595 353.547C354.431 353.155 354.203 352.882 353.909 352.728C353.619 352.569 353.288 352.49 352.915 352.49C352.607 352.49 352.306 352.555 352.012 352.686C351.718 352.817 351.468 353.022 351.263 353.302V357.859C351.417 357.896 351.596 357.927 351.802 357.95C352.007 357.969 352.208 357.978 352.404 357.978ZM360.476 359.126C359.995 359.126 359.566 359.037 359.188 358.86C358.815 358.678 358.521 358.384 358.306 357.978C358.091 357.572 357.984 357.031 357.984 356.354V351.384H359.447V356.27C359.447 356.863 359.575 357.273 359.832 357.502C360.093 357.731 360.432 357.845 360.847 357.845C361.155 357.845 361.479 357.775 361.82 357.635C362.165 357.495 362.459 357.269 362.702 356.956V351.384H364.158V359H362.94L362.842 358.188H362.765C362.452 358.501 362.1 358.736 361.708 358.895C361.321 359.049 360.91 359.126 360.476 359.126ZM369.395 359.133C368.573 359.133 367.936 358.925 367.484 358.51C367.036 358.095 366.812 357.43 366.812 356.515V352.567H365.44V351.384H366.812L367.064 348.64H368.275V351.384H370.543V352.567H368.275V356.277C368.275 356.884 368.394 357.306 368.632 357.544C368.874 357.782 369.245 357.901 369.745 357.901C369.997 357.901 370.293 357.864 370.634 357.789V358.993C370.223 359.086 369.81 359.133 369.395 359.133ZM375.237 359.14C373.972 359.14 373.025 358.832 372.395 358.216C371.765 357.595 371.45 356.587 371.45 355.192C371.45 353.876 371.737 352.894 372.311 352.245C372.885 351.592 373.671 351.265 374.67 351.265C375.65 351.265 376.404 351.592 376.931 352.245C377.458 352.898 377.722 353.892 377.722 355.227V355.647H372.927C372.955 356.506 373.167 357.11 373.564 357.46C373.961 357.81 374.581 357.985 375.426 357.985C375.715 357.985 376.019 357.962 376.336 357.915C376.653 357.864 376.985 357.791 377.33 357.698V358.846C376.952 358.949 376.593 359.023 376.252 359.07C375.911 359.117 375.573 359.14 375.237 359.14ZM374.656 352.266C374.129 352.266 373.711 352.448 373.403 352.812C373.1 353.171 372.939 353.808 372.92 354.723H376.336C376.322 353.813 376.17 353.176 375.881 352.812C375.592 352.448 375.183 352.266 374.656 352.266ZM379.358 359V351.384H380.569L380.688 352.392H380.765C381.012 352.028 381.327 351.755 381.71 351.573C382.093 351.391 382.499 351.3 382.928 351.3C383.138 351.3 383.341 351.319 383.537 351.356V352.693C383.425 352.674 383.311 352.663 383.194 352.658C383.082 352.649 382.968 352.644 382.851 352.644C382.492 352.644 382.121 352.726 381.738 352.889C381.355 353.048 381.05 353.29 380.821 353.617V359H379.358ZM331.519 377.133C331.076 377.133 330.623 377.096 330.161 377.021C329.699 376.951 329.265 376.846 328.859 376.706V375.46C329.293 375.609 329.744 375.721 330.21 375.796C330.677 375.866 331.116 375.901 331.526 375.901C332.334 375.901 332.924 375.756 333.297 375.467C333.671 375.178 333.857 374.76 333.857 374.214C333.857 373.747 333.715 373.39 333.43 373.143C333.15 372.896 332.665 372.681 331.974 372.499L331.344 372.338C330.453 372.109 329.783 371.764 329.335 371.302C328.892 370.84 328.67 370.226 328.67 369.461C328.67 368.542 328.995 367.821 329.643 367.298C330.292 366.771 331.26 366.507 332.548 366.507C333.416 366.507 334.191 366.61 334.872 366.815V368.061C334.177 367.846 333.423 367.739 332.611 367.739C331.743 367.739 331.118 367.886 330.735 368.18C330.353 368.469 330.161 368.871 330.161 369.384C330.161 369.832 330.287 370.18 330.539 370.427C330.796 370.674 331.246 370.882 331.89 371.05L332.52 371.211C333.491 371.454 334.205 371.808 334.662 372.275C335.12 372.737 335.348 373.351 335.348 374.116C335.348 375.068 335.012 375.81 334.34 376.342C333.673 376.869 332.733 377.133 331.519 377.133ZM340.299 377.14C339.156 377.14 338.276 376.825 337.66 376.195C337.049 375.56 336.743 374.562 336.743 373.199C336.743 371.827 337.074 370.828 337.737 370.203C338.4 369.578 339.342 369.265 340.565 369.265C340.84 369.265 341.113 369.281 341.384 369.314C341.659 369.347 341.921 369.393 342.168 369.454V370.658C341.673 370.537 341.197 370.476 340.74 370.476C339.895 370.476 339.27 370.681 338.864 371.092C338.458 371.498 338.255 372.193 338.255 373.178C338.255 374.181 338.446 374.891 338.829 375.306C339.212 375.717 339.774 375.922 340.516 375.922C340.754 375.922 341.006 375.901 341.272 375.859C341.538 375.812 341.837 375.738 342.168 375.635V376.832C341.575 377.037 340.952 377.14 340.299 377.14ZM343.653 377V369.384H345.116V377H343.653ZM344.388 367.9C343.744 367.9 343.422 367.62 343.422 367.06C343.422 366.794 343.503 366.586 343.667 366.437C343.83 366.283 344.07 366.206 344.388 366.206C344.705 366.206 344.945 366.283 345.109 366.437C345.272 366.586 345.354 366.794 345.354 367.06C345.354 367.62 345.032 367.9 344.388 367.9ZM350.64 377.14C349.375 377.14 348.428 376.832 347.798 376.216C347.168 375.595 346.853 374.587 346.853 373.192C346.853 371.876 347.14 370.894 347.714 370.245C348.288 369.592 349.074 369.265 350.073 369.265C351.053 369.265 351.807 369.592 352.334 370.245C352.861 370.898 353.125 371.892 353.125 373.227V373.647H348.33C348.358 374.506 348.57 375.11 348.967 375.46C349.364 375.81 349.984 375.985 350.829 375.985C351.118 375.985 351.422 375.962 351.739 375.915C352.056 375.864 352.388 375.791 352.733 375.698V376.846C352.355 376.949 351.996 377.023 351.655 377.07C351.314 377.117 350.976 377.14 350.64 377.14ZM350.059 370.266C349.532 370.266 349.114 370.448 348.806 370.812C348.503 371.171 348.342 371.808 348.323 372.723H351.739C351.725 371.813 351.573 371.176 351.284 370.812C350.995 370.448 350.586 370.266 350.059 370.266ZM354.761 377V369.384H355.979L356.084 370.217H356.168C356.788 369.582 357.568 369.265 358.506 369.265C358.991 369.265 359.42 369.356 359.794 369.538C360.172 369.72 360.468 370.016 360.683 370.427C360.897 370.833 361.005 371.377 361.005 372.058V377H359.542V372.135C359.542 371.542 359.413 371.129 359.157 370.896C358.9 370.663 358.55 370.546 358.107 370.546C357.794 370.546 357.463 370.616 357.113 370.756C356.767 370.891 356.471 371.12 356.224 371.442V377H354.761ZM366.207 377.14C365.063 377.14 364.184 376.825 363.568 376.195C362.956 375.56 362.651 374.562 362.651 373.199C362.651 371.827 362.982 370.828 363.645 370.203C364.307 369.578 365.25 369.265 366.473 369.265C366.748 369.265 367.021 369.281 367.292 369.314C367.567 369.347 367.828 369.393 368.076 369.454V370.658C367.581 370.537 367.105 370.476 366.648 370.476C365.803 370.476 365.178 370.681 364.772 371.092C364.366 371.498 364.163 372.193 364.163 373.178C364.163 374.181 364.354 374.891 364.737 375.306C365.119 375.717 365.682 375.922 366.424 375.922C366.662 375.922 366.914 375.901 367.18 375.859C367.446 375.812 367.744 375.738 368.076 375.635V376.832C367.483 377.037 366.86 377.14 366.207 377.14ZM372.812 377.14C371.547 377.14 370.6 376.832 369.97 376.216C369.34 375.595 369.025 374.587 369.025 373.192C369.025 371.876 369.312 370.894 369.886 370.245C370.46 369.592 371.246 369.265 372.245 369.265C373.225 369.265 373.979 369.592 374.506 370.245C375.033 370.898 375.297 371.892 375.297 373.227V373.647H370.502C370.53 374.506 370.742 375.11 371.139 375.46C371.536 375.81 372.156 375.985 373.001 375.985C373.29 375.985 373.594 375.962 373.911 375.915C374.228 375.864 374.56 375.791 374.905 375.698V376.846C374.527 376.949 374.168 377.023 373.827 377.07C373.486 377.117 373.148 377.14 372.812 377.14ZM372.231 370.266C371.704 370.266 371.286 370.448 370.978 370.812C370.675 371.171 370.514 371.808 370.495 372.723H373.911C373.897 371.813 373.745 371.176 373.456 370.812C373.167 370.448 372.758 370.266 372.231 370.266Z" fill="black"/>
<path d="M449.348 359V348.64H450.832V353.029H455.935V348.64H457.426V359H455.935V354.352H450.832V359H449.348ZM459.664 359V351.384H461.127V359H459.664ZM460.399 349.9C459.755 349.9 459.433 349.62 459.433 349.06C459.433 348.794 459.515 348.586 459.678 348.437C459.841 348.283 460.082 348.206 460.399 348.206C460.716 348.206 460.957 348.283 461.12 348.437C461.283 348.586 461.365 348.794 461.365 349.06C461.365 349.62 461.043 349.9 460.399 349.9ZM465.195 359.14C464.383 359.14 463.646 359.035 462.983 358.825V357.698C463.707 357.913 464.442 358.02 465.188 358.02C465.8 358.02 466.238 357.922 466.504 357.726C466.775 357.53 466.91 357.255 466.91 356.9C466.91 356.601 466.831 356.375 466.672 356.221C466.518 356.062 466.257 355.943 465.888 355.864L464.796 355.647C464.092 355.507 463.585 355.262 463.277 354.912C462.974 354.562 462.822 354.105 462.822 353.54C462.822 352.873 463.084 352.327 463.606 351.902C464.129 351.477 464.934 351.265 466.021 351.265C466.357 351.265 466.682 351.286 466.994 351.328C467.312 351.365 467.61 351.421 467.89 351.496V352.623C467.298 352.464 466.686 352.385 466.056 352.385C465.356 352.385 464.873 352.495 464.607 352.714C464.341 352.929 464.208 353.192 464.208 353.505C464.208 353.766 464.281 353.981 464.425 354.149C464.575 354.312 464.834 354.436 465.202 354.52L466.294 354.73C466.99 354.875 467.496 355.113 467.813 355.444C468.135 355.775 468.296 356.24 468.296 356.837C468.296 357.551 468.03 358.113 467.498 358.524C466.971 358.935 466.203 359.14 465.195 359.14ZM472.847 359.133C472.025 359.133 471.388 358.925 470.936 358.51C470.488 358.095 470.264 357.43 470.264 356.515V352.567H468.892V351.384H470.264L470.516 348.64H471.727V351.384H473.995V352.567H471.727V356.277C471.727 356.884 471.846 357.306 472.084 357.544C472.326 357.782 472.697 357.901 473.197 357.901C473.449 357.901 473.745 357.864 474.086 357.789V358.993C473.675 359.086 473.262 359.133 472.847 359.133ZM478.29 359.14C477.259 359.14 476.435 358.825 475.819 358.195C475.208 357.56 474.902 356.564 474.902 355.206C474.902 353.843 475.205 352.847 475.812 352.217C476.419 351.582 477.245 351.265 478.29 351.265C479.335 351.265 480.161 351.582 480.768 352.217C481.375 352.847 481.678 353.841 481.678 355.199C481.678 356.552 481.37 357.549 480.754 358.188C480.143 358.823 479.321 359.14 478.29 359.14ZM478.29 357.985C478.682 357.985 479.02 357.901 479.305 357.733C479.59 357.56 479.809 357.273 479.963 356.872C480.117 356.466 480.194 355.913 480.194 355.213C480.194 354.504 480.117 353.946 479.963 353.54C479.809 353.134 479.59 352.847 479.305 352.679C479.02 352.506 478.682 352.42 478.29 352.42C477.898 352.42 477.56 352.506 477.275 352.679C476.99 352.847 476.771 353.132 476.617 353.533C476.463 353.934 476.386 354.485 476.386 355.185C476.386 355.894 476.463 356.452 476.617 356.858C476.771 357.264 476.99 357.553 477.275 357.726C477.56 357.899 477.898 357.985 478.29 357.985ZM483.412 359V351.384H484.623L484.742 352.392H484.819C485.066 352.028 485.381 351.755 485.764 351.573C486.146 351.391 486.552 351.3 486.982 351.3C487.192 351.3 487.395 351.319 487.591 351.356V352.693C487.479 352.674 487.364 352.663 487.248 352.658C487.136 352.649 487.021 352.644 486.905 352.644C486.545 352.644 486.174 352.726 485.792 352.889C485.409 353.048 485.103 353.29 484.875 353.617V359H483.412ZM491.006 359L488.185 351.384H489.732L491.951 357.761L494.219 351.384H495.675L491.713 362.08H490.271L491.419 359H491.006Z" fill="black"/>
<path d="M570.33 359V348.64H571.814V353.029H576.917V348.64H578.408V359H576.917V354.352H571.814V359H570.33ZM583.061 359.126C582.58 359.126 582.151 359.037 581.773 358.86C581.4 358.678 581.106 358.384 580.891 357.978C580.676 357.572 580.569 357.031 580.569 356.354V351.384H582.032V356.27C582.032 356.863 582.16 357.273 582.417 357.502C582.678 357.731 583.017 357.845 583.432 357.845C583.74 357.845 584.064 357.775 584.405 357.635C584.75 357.495 585.044 357.269 585.287 356.956V351.384H586.743V359H585.525L585.427 358.188H585.35C585.037 358.501 584.685 358.736 584.293 358.895C583.906 359.049 583.495 359.126 583.061 359.126ZM588.852 359V351.384H590.07L590.175 352.224H590.259C590.829 351.585 591.554 351.265 592.436 351.265C592.856 351.265 593.232 351.349 593.563 351.517C593.899 351.68 594.163 351.949 594.354 352.322C594.704 351.939 595.082 351.669 595.488 351.51C595.899 351.347 596.298 351.265 596.685 351.265C597.143 351.265 597.549 351.356 597.903 351.538C598.258 351.72 598.538 352.016 598.743 352.427C598.949 352.833 599.051 353.377 599.051 354.058V359H597.595V354.128C597.595 353.531 597.472 353.118 597.224 352.889C596.982 352.66 596.671 352.546 596.293 352.546C596.027 352.546 595.745 352.609 595.446 352.735C595.148 352.856 594.886 353.071 594.662 353.379C594.686 353.575 594.697 353.787 594.697 354.016V359H593.262V354.128C593.262 353.531 593.146 353.118 592.912 352.889C592.679 352.66 592.373 352.546 591.995 352.546C591.706 352.546 591.407 352.618 591.099 352.763C590.791 352.908 590.53 353.143 590.315 353.47V359H588.852ZM603.045 359.126C602.308 359.126 601.729 358.937 601.309 358.559C600.894 358.181 600.686 357.665 600.686 357.012C600.686 356.335 600.912 355.806 601.365 355.423C601.822 355.04 602.557 354.805 603.57 354.716L605.159 354.555V354.072C605.159 353.433 605.005 352.999 604.697 352.77C604.389 352.537 603.911 352.42 603.262 352.42C602.973 352.42 602.646 352.446 602.282 352.497C601.918 352.548 601.559 352.632 601.204 352.749V351.601C601.545 351.489 601.92 351.405 602.331 351.349C602.742 351.293 603.127 351.265 603.486 351.265C604.181 351.265 604.758 351.356 605.215 351.538C605.677 351.715 606.02 352.014 606.244 352.434C606.473 352.854 606.587 353.428 606.587 354.156V359H605.376L605.271 358.181H605.187C604.944 358.494 604.634 358.729 604.256 358.888C603.883 359.047 603.479 359.126 603.045 359.126ZM602.149 356.879C602.149 357.663 602.585 358.055 603.458 358.055C603.757 358.055 604.053 357.994 604.347 357.873C604.646 357.752 604.916 357.549 605.159 357.264V355.465L603.696 355.612C603.145 355.668 602.749 355.801 602.506 356.011C602.268 356.221 602.149 356.51 602.149 356.879ZM608.629 359V351.384H609.847L609.952 352.217H610.036C610.656 351.582 611.436 351.265 612.374 351.265C612.859 351.265 613.288 351.356 613.662 351.538C614.04 351.72 614.336 352.016 614.551 352.427C614.765 352.833 614.873 353.377 614.873 354.058V359H613.41V354.135C613.41 353.542 613.281 353.129 613.025 352.896C612.768 352.663 612.418 352.546 611.975 352.546C611.662 352.546 611.331 352.616 610.981 352.756C610.635 352.891 610.339 353.12 610.092 353.442V359H608.629ZM564.357 377V366.829C564.773 366.745 565.223 366.675 565.708 366.619C566.198 366.558 566.716 366.528 567.262 366.528C568.667 366.528 569.715 366.782 570.405 367.291C571.101 367.8 571.448 368.595 571.448 369.678C571.448 370.457 571.243 371.097 570.832 371.596C570.422 372.095 569.827 372.448 569.047 372.653L572.267 377H570.601L567.563 372.856C567.433 372.865 567.295 372.87 567.15 372.87C566.889 372.87 566.656 372.865 566.45 372.856C566.245 372.847 566.035 372.833 565.82 372.814V377H564.357ZM567.171 371.715C568.17 371.715 568.898 371.552 569.355 371.225C569.813 370.898 570.041 370.385 570.041 369.685C570.041 368.971 569.829 368.458 569.404 368.145C568.98 367.828 568.308 367.669 567.388 367.669C567.066 367.669 566.784 367.681 566.541 367.704C566.299 367.727 566.058 367.76 565.82 367.802V371.652C566.068 371.675 566.287 371.692 566.478 371.701C566.674 371.71 566.905 371.715 567.171 371.715ZM576.667 377.14C575.403 377.14 574.455 376.832 573.825 376.216C573.195 375.595 572.88 374.587 572.88 373.192C572.88 371.876 573.167 370.894 573.741 370.245C574.315 369.592 575.102 369.265 576.1 369.265C577.08 369.265 577.834 369.592 578.361 370.245C578.889 370.898 579.152 371.892 579.152 373.227V373.647H574.357C574.385 374.506 574.598 375.11 574.994 375.46C575.391 375.81 576.012 375.985 576.856 375.985C577.146 375.985 577.449 375.962 577.766 375.915C578.084 375.864 578.415 375.791 578.76 375.698V376.846C578.382 376.949 578.023 377.023 577.682 377.07C577.342 377.117 577.003 377.14 576.667 377.14ZM576.086 370.266C575.559 370.266 575.141 370.448 574.833 370.812C574.53 371.171 574.369 371.808 574.35 372.723H577.766C577.752 371.813 577.601 371.176 577.311 370.812C577.022 370.448 576.614 370.266 576.086 370.266ZM582.734 377.14C581.922 377.14 581.185 377.035 580.522 376.825V375.698C581.245 375.913 581.98 376.02 582.727 376.02C583.338 376.02 583.777 375.922 584.043 375.726C584.314 375.53 584.449 375.255 584.449 374.9C584.449 374.601 584.37 374.375 584.211 374.221C584.057 374.062 583.796 373.943 583.427 373.864L582.335 373.647C581.63 373.507 581.124 373.262 580.816 372.912C580.513 372.562 580.361 372.105 580.361 371.54C580.361 370.873 580.622 370.327 581.145 369.902C581.668 369.477 582.473 369.265 583.56 369.265C583.896 369.265 584.22 369.286 584.533 369.328C584.85 369.365 585.149 369.421 585.429 369.496V370.623C584.836 370.464 584.225 370.385 583.595 370.385C582.895 370.385 582.412 370.495 582.146 370.714C581.88 370.929 581.747 371.192 581.747 371.505C581.747 371.766 581.819 371.981 581.964 372.149C582.113 372.312 582.372 372.436 582.741 372.52L583.833 372.73C584.528 372.875 585.035 373.113 585.352 373.444C585.674 373.775 585.835 374.24 585.835 374.837C585.835 375.551 585.569 376.113 585.037 376.524C584.51 376.935 583.742 377.14 582.734 377.14ZM590.411 377.14C589.38 377.14 588.556 376.825 587.94 376.195C587.329 375.56 587.023 374.564 587.023 373.206C587.023 371.843 587.327 370.847 587.933 370.217C588.54 369.582 589.366 369.265 590.411 369.265C591.457 369.265 592.283 369.582 592.889 370.217C593.496 370.847 593.799 371.841 593.799 373.199C593.799 374.552 593.491 375.549 592.875 376.188C592.264 376.823 591.443 377.14 590.411 377.14ZM590.411 375.985C590.803 375.985 591.142 375.901 591.426 375.733C591.711 375.56 591.93 375.273 592.084 374.872C592.238 374.466 592.315 373.913 592.315 373.213C592.315 372.504 592.238 371.946 592.084 371.54C591.93 371.134 591.711 370.847 591.426 370.679C591.142 370.506 590.803 370.42 590.411 370.42C590.019 370.42 589.681 370.506 589.396 370.679C589.112 370.847 588.892 371.132 588.738 371.533C588.584 371.934 588.507 372.485 588.507 373.185C588.507 373.894 588.584 374.452 588.738 374.858C588.892 375.264 589.112 375.553 589.396 375.726C589.681 375.899 590.019 375.985 590.411 375.985ZM597.948 377.126C597.467 377.126 597.038 377.037 596.66 376.86C596.286 376.678 595.992 376.384 595.778 375.978C595.563 375.572 595.456 375.031 595.456 374.354V369.384H596.919V374.27C596.919 374.863 597.047 375.273 597.304 375.502C597.565 375.731 597.903 375.845 598.319 375.845C598.627 375.845 598.951 375.775 599.292 375.635C599.637 375.495 599.931 375.269 600.174 374.956V369.384H601.63V377H600.412L600.314 376.188H600.237C599.924 376.501 599.572 376.736 599.18 376.895C598.792 377.049 598.382 377.126 597.948 377.126ZM603.739 377V369.384H604.95L605.069 370.392H605.146C605.394 370.028 605.709 369.755 606.091 369.573C606.474 369.391 606.88 369.3 607.309 369.3C607.519 369.3 607.722 369.319 607.918 369.356V370.693C607.806 370.674 607.692 370.663 607.575 370.658C607.463 370.649 607.349 370.644 607.232 370.644C606.873 370.644 606.502 370.726 606.119 370.889C605.737 371.048 605.431 371.29 605.202 371.617V377H603.739ZM612.15 377.14C611.007 377.14 610.127 376.825 609.511 376.195C608.9 375.56 608.594 374.562 608.594 373.199C608.594 371.827 608.925 370.828 609.588 370.203C610.251 369.578 611.193 369.265 612.416 369.265C612.691 369.265 612.964 369.281 613.235 369.314C613.51 369.347 613.772 369.393 614.019 369.454V370.658C613.524 370.537 613.048 370.476 612.591 370.476C611.746 370.476 611.121 370.681 610.715 371.092C610.309 371.498 610.106 372.193 610.106 373.178C610.106 374.181 610.297 374.891 610.68 375.306C611.063 375.717 611.625 375.922 612.367 375.922C612.605 375.922 612.857 375.901 613.123 375.859C613.389 375.812 613.688 375.738 614.019 375.635V376.832C613.426 377.037 612.803 377.14 612.15 377.14ZM618.755 377.14C617.491 377.14 616.543 376.832 615.913 376.216C615.283 375.595 614.968 374.587 614.968 373.192C614.968 371.876 615.255 370.894 615.829 370.245C616.403 369.592 617.19 369.265 618.188 369.265C619.168 369.265 619.922 369.592 620.449 370.245C620.977 370.898 621.24 371.892 621.24 373.227V373.647H616.445C616.473 374.506 616.686 375.11 617.082 375.46C617.479 375.81 618.1 375.985 618.944 375.985C619.234 375.985 619.537 375.962 619.854 375.915C620.172 375.864 620.503 375.791 620.848 375.698V376.846C620.47 376.949 620.111 377.023 619.77 377.07C619.43 377.117 619.091 377.14 618.755 377.14ZM618.174 370.266C617.647 370.266 617.229 370.448 616.921 370.812C616.618 371.171 616.457 371.808 616.438 372.723H619.854C619.84 371.813 619.689 371.176 619.399 370.812C619.11 370.448 618.702 370.266 618.174 370.266Z" fill="black"/>
<path d="M691.399 359V348.64H692.883V357.733H697.881V359H691.399ZM699.158 359V351.384H700.621V359H699.158ZM699.893 349.9C699.249 349.9 698.927 349.62 698.927 349.06C698.927 348.794 699.009 348.586 699.172 348.437C699.336 348.283 699.576 348.206 699.893 348.206C700.211 348.206 700.451 348.283 700.614 348.437C700.778 348.586 700.859 348.794 700.859 349.06C700.859 349.62 700.537 349.9 699.893 349.9ZM705.271 359.133C704.846 359.133 704.414 359.103 703.976 359.042C703.537 358.981 703.126 358.89 702.744 358.769V347.688H704.207V352.154H704.284C704.512 351.888 704.799 351.673 705.145 351.51C705.495 351.347 705.896 351.265 706.349 351.265C706.881 351.265 707.368 351.391 707.812 351.643C708.255 351.895 708.61 352.299 708.876 352.854C709.142 353.405 709.275 354.135 709.275 355.045C709.275 357.775 707.94 359.138 705.271 359.133ZM705.39 357.985C706.178 357.985 706.776 357.768 707.182 357.334C707.588 356.895 707.791 356.174 707.791 355.171C707.791 354.476 707.707 353.934 707.539 353.547C707.375 353.16 707.147 352.889 706.853 352.735C706.563 352.576 706.232 352.497 705.859 352.497C705.551 352.497 705.25 352.558 704.956 352.679C704.662 352.8 704.412 352.989 704.207 353.246V357.831C704.361 357.873 704.54 357.91 704.746 357.943C704.956 357.971 705.17 357.985 705.39 357.985ZM714.475 359.14C713.211 359.14 712.263 358.832 711.633 358.216C711.003 357.595 710.688 356.587 710.688 355.192C710.688 353.876 710.975 352.894 711.549 352.245C712.123 351.592 712.91 351.265 713.908 351.265C714.888 351.265 715.642 351.592 716.169 352.245C716.697 352.898 716.96 353.892 716.96 355.227V355.647H712.165C712.193 356.506 712.406 357.11 712.802 357.46C713.199 357.81 713.82 357.985 714.664 357.985C714.954 357.985 715.257 357.962 715.574 357.915C715.892 357.864 716.223 357.791 716.568 357.698V358.846C716.19 358.949 715.831 359.023 715.49 359.07C715.15 359.117 714.811 359.14 714.475 359.14ZM713.894 352.266C713.367 352.266 712.949 352.448 712.641 352.812C712.338 353.171 712.177 353.808 712.158 354.723H715.574C715.56 353.813 715.409 353.176 715.119 352.812C714.83 352.448 714.422 352.266 713.894 352.266ZM718.596 359V351.384H719.807L719.926 352.392H720.003C720.25 352.028 720.565 351.755 720.948 351.573C721.331 351.391 721.737 351.3 722.166 351.3C722.376 351.3 722.579 351.319 722.775 351.356V352.693C722.663 352.674 722.549 352.663 722.432 352.658C722.32 352.649 722.206 352.644 722.089 352.644C721.73 352.644 721.359 352.726 720.976 352.889C720.593 353.048 720.288 353.29 720.059 353.617V359H718.596ZM725.679 359.126C724.942 359.126 724.363 358.937 723.943 358.559C723.528 358.181 723.32 357.665 723.32 357.012C723.32 356.335 723.547 355.806 723.999 355.423C724.457 355.04 725.192 354.805 726.204 354.716L727.793 354.555V354.072C727.793 353.433 727.639 352.999 727.331 352.77C727.023 352.537 726.545 352.42 725.896 352.42C725.607 352.42 725.28 352.446 724.916 352.497C724.552 352.548 724.193 352.632 723.838 352.749V351.601C724.179 351.489 724.555 351.405 724.965 351.349C725.376 351.293 725.761 351.265 726.12 351.265C726.816 351.265 727.392 351.356 727.849 351.538C728.311 351.715 728.654 352.014 728.878 352.434C729.107 352.854 729.221 353.428 729.221 354.156V359H728.01L727.905 358.181H727.821C727.579 358.494 727.268 358.729 726.89 358.888C726.517 359.047 726.113 359.126 725.679 359.126ZM724.783 356.879C724.783 357.663 725.22 358.055 726.092 358.055C726.391 358.055 726.687 357.994 726.981 357.873C727.28 357.752 727.551 357.549 727.793 357.264V355.465L726.33 355.612C725.78 355.668 725.383 355.801 725.14 356.011C724.902 356.221 724.783 356.51 724.783 356.879ZM731.263 359V347.688H732.726V359H731.263ZM698.512 377L702.117 366.64H704.245L707.85 377H706.366L705.281 373.822H701.06L699.982 377H698.512ZM701.473 372.611H704.868L703.167 367.62L701.473 372.611ZM709.151 377V369.384H710.362L710.481 370.392H710.558C710.805 370.028 711.12 369.755 711.503 369.573C711.885 369.391 712.291 369.3 712.721 369.3C712.931 369.3 713.134 369.319 713.33 369.356V370.693C713.218 370.674 713.103 370.663 712.987 370.658C712.875 370.649 712.76 370.644 712.644 370.644C712.284 370.644 711.913 370.726 711.531 370.889C711.148 371.048 710.842 371.29 710.614 371.617V377H709.151ZM717.805 377.133C716.983 377.133 716.346 376.925 715.894 376.51C715.446 376.095 715.222 375.43 715.222 374.515V370.567H713.85V369.384H715.222L715.474 366.64H716.685V369.384H718.953V370.567H716.685V374.277C716.685 374.884 716.804 375.306 717.042 375.544C717.284 375.782 717.655 375.901 718.155 375.901C718.407 375.901 718.703 375.864 719.044 375.789V376.993C718.633 377.086 718.22 377.133 717.805 377.133ZM722.109 377.14C721.297 377.14 720.56 377.035 719.897 376.825V375.698C720.62 375.913 721.355 376.02 722.102 376.02C722.713 376.02 723.152 375.922 723.418 375.726C723.689 375.53 723.824 375.255 723.824 374.9C723.824 374.601 723.745 374.375 723.586 374.221C723.432 374.062 723.171 373.943 722.802 373.864L721.71 373.647C721.005 373.507 720.499 373.262 720.191 372.912C719.888 372.562 719.736 372.105 719.736 371.54C719.736 370.873 719.997 370.327 720.52 369.902C721.043 369.477 721.848 369.265 722.935 369.265C723.271 369.265 723.595 369.286 723.908 369.328C724.225 369.365 724.524 369.421 724.804 369.496V370.623C724.211 370.464 723.6 370.385 722.97 370.385C722.27 370.385 721.787 370.495 721.521 370.714C721.255 370.929 721.122 371.192 721.122 371.505C721.122 371.766 721.194 371.981 721.339 372.149C721.488 372.312 721.747 372.436 722.116 372.52L723.208 372.73C723.903 372.875 724.41 373.113 724.727 373.444C725.049 373.775 725.21 374.24 725.21 374.837C725.21 375.551 724.944 376.113 724.412 376.524C723.885 376.935 723.117 377.14 722.109 377.14Z" fill="black"/>
<path d="M809.635 359V348.64H816.313V349.865H811.105V353.078H815.62V354.303H811.105V357.775H816.383V359H809.635ZM818.01 359V351.384H819.228L819.333 352.217H819.417C820.038 351.582 820.817 351.265 821.755 351.265C822.24 351.265 822.67 351.356 823.043 351.538C823.421 351.72 823.717 352.016 823.932 352.427C824.147 352.833 824.254 353.377 824.254 354.058V359H822.791V354.135C822.791 353.542 822.663 353.129 822.406 352.896C822.149 352.663 821.799 352.546 821.356 352.546C821.043 352.546 820.712 352.616 820.362 352.756C820.017 352.891 819.72 353.12 819.473 353.442V359H818.01ZM828.742 362.22C828.373 362.22 827.981 362.192 827.566 362.136C827.155 362.085 826.768 362.003 826.404 361.891V360.701C826.805 360.822 827.192 360.911 827.566 360.967C827.944 361.028 828.303 361.058 828.644 361.058C829.442 361.058 830.027 360.892 830.401 360.561C830.779 360.23 830.968 359.663 830.968 358.86V358.195H830.891C830.662 358.461 830.373 358.676 830.023 358.839C829.677 359.002 829.278 359.084 828.826 359.084C828.303 359.084 827.82 358.96 827.377 358.713C826.933 358.461 826.576 358.062 826.306 357.516C826.035 356.965 825.9 356.242 825.9 355.346C825.9 352.625 827.234 351.265 829.904 351.265C830.328 351.265 830.765 351.298 831.213 351.363C831.661 351.428 832.067 351.519 832.431 351.636V358.615C832.431 359.898 832.123 360.82 831.507 361.38C830.895 361.94 829.974 362.22 828.742 362.22ZM829.316 357.859C829.619 357.859 829.918 357.798 830.212 357.677C830.51 357.556 830.762 357.367 830.968 357.11V352.56C830.814 352.518 830.632 352.485 830.422 352.462C830.216 352.434 830.004 352.42 829.785 352.42C829.005 352.42 828.41 352.637 828 353.071C827.589 353.505 827.384 354.219 827.384 355.213C827.384 355.904 827.465 356.44 827.629 356.823C827.797 357.206 828.025 357.474 828.315 357.628C828.604 357.782 828.938 357.859 829.316 357.859ZM834.546 359V347.688H836.009V359H834.546ZM838.117 359V351.384H839.58V359H838.117ZM838.852 349.9C838.208 349.9 837.886 349.62 837.886 349.06C837.886 348.794 837.968 348.586 838.131 348.437C838.295 348.283 838.535 348.206 838.852 348.206C839.17 348.206 839.41 348.283 839.573 348.437C839.737 348.586 839.818 348.794 839.818 349.06C839.818 349.62 839.496 349.9 838.852 349.9ZM843.649 359.14C842.837 359.14 842.099 359.035 841.437 358.825V357.698C842.16 357.913 842.895 358.02 843.642 358.02C844.253 358.02 844.692 357.922 844.958 357.726C845.228 357.53 845.364 357.255 845.364 356.9C845.364 356.601 845.284 356.375 845.126 356.221C844.972 356.062 844.71 355.943 844.342 355.864L843.25 355.647C842.545 355.507 842.039 355.262 841.731 354.912C841.427 354.562 841.276 354.105 841.276 353.54C841.276 352.873 841.537 352.327 842.06 351.902C842.582 351.477 843.387 351.265 844.475 351.265C844.811 351.265 845.135 351.286 845.448 351.328C845.765 351.365 846.064 351.421 846.344 351.496V352.623C845.751 352.464 845.14 352.385 844.51 352.385C843.81 352.385 843.327 352.495 843.061 352.714C842.795 352.929 842.662 353.192 842.662 353.505C842.662 353.766 842.734 353.981 842.879 354.149C843.028 354.312 843.287 354.436 843.656 354.52L844.748 354.73C845.443 354.875 845.949 355.113 846.267 355.444C846.589 355.775 846.75 356.24 846.75 356.837C846.75 357.551 846.484 358.113 845.952 358.524C845.424 358.935 844.657 359.14 843.649 359.14ZM848.323 359V347.688H849.786V352.21H849.863C850.456 351.58 851.214 351.265 852.138 351.265C852.6 351.265 853.013 351.356 853.377 351.538C853.746 351.72 854.035 352.014 854.245 352.42C854.46 352.826 854.567 353.37 854.567 354.051V359H853.104V354.135C853.104 353.538 852.974 353.127 852.712 352.903C852.451 352.674 852.103 352.56 851.669 352.56C851.347 352.56 851.014 352.63 850.668 352.77C850.323 352.905 850.029 353.132 849.786 353.449V359H848.323ZM801.325 377V366.64H802.809V375.733H807.807V377H801.325ZM809.084 377V369.384H810.547V377H809.084ZM809.819 367.9C809.175 367.9 808.853 367.62 808.853 367.06C808.853 366.794 808.935 366.586 809.098 366.437C809.261 366.283 809.502 366.206 809.819 366.206C810.136 366.206 810.377 366.283 810.54 366.437C810.703 366.586 810.785 366.794 810.785 367.06C810.785 367.62 810.463 367.9 809.819 367.9ZM815.728 377.133C814.907 377.133 814.27 376.925 813.817 376.51C813.369 376.095 813.145 375.43 813.145 374.515V370.567H811.773V369.384H813.145L813.397 366.64H814.608V369.384H816.876V370.567H814.608V374.277C814.608 374.884 814.727 375.306 814.965 375.544C815.208 375.782 815.579 375.901 816.078 375.901C816.33 375.901 816.627 375.864 816.967 375.789V376.993C816.557 377.086 816.144 377.133 815.728 377.133ZM821.571 377.14C820.306 377.14 819.359 376.832 818.729 376.216C818.099 375.595 817.784 374.587 817.784 373.192C817.784 371.876 818.071 370.894 818.645 370.245C819.219 369.592 820.005 369.265 821.004 369.265C821.984 369.265 822.738 369.592 823.265 370.245C823.792 370.898 824.056 371.892 824.056 373.227V373.647H819.261C819.289 374.506 819.501 375.11 819.898 375.46C820.295 375.81 820.915 375.985 821.76 375.985C822.049 375.985 822.353 375.962 822.67 375.915C822.987 375.864 823.319 375.791 823.664 375.698V376.846C823.286 376.949 822.927 377.023 822.586 377.07C822.245 377.117 821.907 377.14 821.571 377.14ZM820.99 370.266C820.463 370.266 820.045 370.448 819.737 370.812C819.434 371.171 819.273 371.808 819.254 372.723H822.67C822.656 371.813 822.504 371.176 822.215 370.812C821.926 370.448 821.517 370.266 820.99 370.266ZM825.692 377V369.384H826.903L827.022 370.392H827.099C827.346 370.028 827.661 369.755 828.044 369.573C828.426 369.391 828.832 369.3 829.262 369.3C829.472 369.3 829.675 369.319 829.871 369.356V370.693C829.759 370.674 829.644 370.663 829.528 370.658C829.416 370.649 829.301 370.644 829.185 370.644C828.825 370.644 828.454 370.726 828.072 370.889C827.689 371.048 827.383 371.29 827.155 371.617V377H825.692ZM832.775 377.126C832.038 377.126 831.459 376.937 831.039 376.559C830.624 376.181 830.416 375.665 830.416 375.012C830.416 374.335 830.642 373.806 831.095 373.423C831.552 373.04 832.287 372.805 833.3 372.716L834.889 372.555V372.072C834.889 371.433 834.735 370.999 834.427 370.77C834.119 370.537 833.641 370.42 832.992 370.42C832.703 370.42 832.376 370.446 832.012 370.497C831.648 370.548 831.289 370.632 830.934 370.749V369.601C831.275 369.489 831.65 369.405 832.061 369.349C832.472 369.293 832.857 369.265 833.216 369.265C833.911 369.265 834.488 369.356 834.945 369.538C835.407 369.715 835.75 370.014 835.974 370.434C836.203 370.854 836.317 371.428 836.317 372.156V377H835.106L835.001 376.181H834.917C834.674 376.494 834.364 376.729 833.986 376.888C833.613 377.047 833.209 377.126 832.775 377.126ZM831.879 374.879C831.879 375.663 832.315 376.055 833.188 376.055C833.487 376.055 833.783 375.994 834.077 375.873C834.376 375.752 834.646 375.549 834.889 375.264V373.465L833.426 373.612C832.875 373.668 832.479 373.801 832.236 374.011C831.998 374.221 831.879 374.51 831.879 374.879ZM841.417 377.133C840.596 377.133 839.959 376.925 839.506 376.51C839.058 376.095 838.834 375.43 838.834 374.515V370.567H837.462V369.384H838.834L839.086 366.64H840.297V369.384H842.565V370.567H840.297V374.277C840.297 374.884 840.416 375.306 840.654 375.544C840.897 375.782 841.268 375.901 841.767 375.901C842.019 375.901 842.316 375.864 842.656 375.789V376.993C842.246 377.086 841.833 377.133 841.417 377.133ZM846.355 377.126C845.874 377.126 845.445 377.037 845.067 376.86C844.693 376.678 844.399 376.384 844.185 375.978C843.97 375.572 843.863 375.031 843.863 374.354V369.384H845.326V374.27C845.326 374.863 845.454 375.273 845.711 375.502C845.972 375.731 846.31 375.845 846.726 375.845C847.034 375.845 847.358 375.775 847.699 375.635C848.044 375.495 848.338 375.269 848.581 374.956V369.384H850.037V377H848.819L848.721 376.188H848.644C848.331 376.501 847.979 376.736 847.587 376.895C847.199 377.049 846.789 377.126 846.355 377.126ZM852.146 377V369.384H853.357L853.476 370.392H853.553C853.801 370.028 854.116 369.755 854.498 369.573C854.881 369.391 855.287 369.3 855.716 369.3C855.926 369.3 856.129 369.319 856.325 369.356V370.693C856.213 370.674 856.099 370.663 855.982 370.658C855.87 370.649 855.756 370.644 855.639 370.644C855.28 370.644 854.909 370.726 854.526 370.889C854.144 371.048 853.838 371.29 853.609 371.617V377H852.146ZM860.788 377.14C859.523 377.14 858.576 376.832 857.946 376.216C857.316 375.595 857.001 374.587 857.001 373.192C857.001 371.876 857.288 370.894 857.862 370.245C858.436 369.592 859.222 369.265 860.221 369.265C861.201 369.265 861.954 369.592 862.482 370.245C863.009 370.898 863.273 371.892 863.273 373.227V373.647H858.478C858.506 374.506 858.718 375.11 859.115 375.46C859.511 375.81 860.132 375.985 860.977 375.985C861.266 375.985 861.569 375.962 861.887 375.915C862.204 375.864 862.535 375.791 862.881 375.698V376.846C862.503 376.949 862.143 377.023 861.803 377.07C861.462 377.117 861.124 377.14 860.788 377.14ZM860.207 370.266C859.679 370.266 859.262 370.448 858.954 370.812C858.65 371.171 858.489 371.808 858.471 372.723H861.887C861.873 371.813 861.721 371.176 861.432 370.812C861.142 370.448 860.734 370.266 860.207 370.266Z" fill="black"/>
<path d="M87 235C87 232.239 89.2386 230 92 230H132C134.761 230 137 232.239 137 235V336H87V235Z" fill="url(#paint0_linear)"/>
<path d="M207 172C207 169.239 209.239 167 212 167H252C254.761 167 257 169.239 257 172V336H207V172Z" fill="url(#paint1_linear)"/>
<path d="M327 208C327 205.239 329.239 203 332 203H372C374.761 203 377 205.239 377 208V336H327V208Z" fill="url(#paint2_linear)"/>
<path d="M447 303C447 300.239 449.239 298 452 298H492C494.761 298 497 300.239 497 303V336H447V303Z" fill="url(#paint3_linear)"/>
<path d="M567 139C567 136.239 569.239 134 572 134H612C614.762 134 617 136.239 617 139V336H567V139Z" fill="url(#paint4_linear)"/>
<path d="M687 226C687 223.239 689.239 221 692 221H732C734.762 221 737 223.239 737 226V336H687V226Z" fill="url(#paint5_linear)"/>
<path d="M807 226C807 223.239 809.239 221 812 221H852C854.762 221 857 223.239 857 226V336H807V226Z" fill="url(#paint6_linear)"/>
<path d="M1.197 20V6.923C1.821 6.797 2.463 6.698 3.123 6.626C3.789 6.554 4.491 6.518 5.229 6.518C7.209 6.518 8.697 6.905 9.693 7.679C10.695 8.447 11.196 9.665 11.196 11.333C11.196 12.911 10.71 14.108 9.738 14.924C8.766 15.734 7.323 16.139 5.409 16.139C4.953 16.139 4.524 16.121 4.122 16.085V20H1.197ZM5.445 13.943C6.447 13.943 7.182 13.742 7.65 13.34C8.118 12.932 8.352 12.269 8.352 11.351C8.352 10.427 8.118 9.758 7.65 9.344C7.188 8.924 6.471 8.714 5.499 8.714C4.995 8.714 4.536 8.75 4.122 8.822V13.862C4.53 13.916 4.971 13.943 5.445 13.943ZM12.9187 20V5.456H15.7807V20H12.9187ZM20.6194 20.18C19.6114 20.18 18.8254 19.919 18.2614 19.397C17.7034 18.875 17.4244 18.188 17.4244 17.336C17.4244 16.412 17.7454 15.689 18.3874 15.167C19.0294 14.639 20.0734 14.327 21.5194 14.231L23.1214 14.096V13.961C23.1214 13.283 22.9504 12.818 22.6084 12.566C22.2724 12.308 21.6964 12.179 20.8804 12.179C20.5024 12.179 20.0734 12.212 19.5934 12.278C19.1134 12.338 18.6544 12.437 18.2164 12.575V10.415C18.6964 10.277 19.2214 10.175 19.7914 10.109C20.3674 10.037 20.9014 10.001 21.3934 10.001C22.4374 10.001 23.2924 10.13 23.9584 10.388C24.6244 10.646 25.1164 11.078 25.4344 11.684C25.7584 12.284 25.9204 13.103 25.9204 14.141V20H23.5624L23.3644 19.019H23.2294C22.9294 19.421 22.5514 19.715 22.0954 19.901C21.6454 20.087 21.1534 20.18 20.6194 20.18ZM20.2504 17.057C20.2504 17.807 20.6854 18.182 21.5554 18.182C21.8194 18.182 22.0894 18.137 22.3654 18.047C22.6414 17.951 22.8934 17.789 23.1214 17.561V15.707L21.8074 15.815C21.2554 15.863 20.8564 15.992 20.6104 16.202C20.3704 16.406 20.2504 16.691 20.2504 17.057ZM32.6451 20.189C31.0011 20.189 29.7381 19.772 28.8561 18.938C27.9741 18.098 27.5331 16.817 27.5331 15.095C27.5331 13.355 28.0041 12.071 28.9461 11.243C29.8881 10.415 31.2201 10.001 32.9421 10.001C33.7461 10.001 34.4781 10.076 35.1381 10.226V12.494C34.8261 12.434 34.5231 12.389 34.2291 12.359C33.9351 12.329 33.6381 12.314 33.3381 12.314C32.3541 12.314 31.6341 12.527 31.1781 12.953C30.7221 13.379 30.4941 14.084 30.4941 15.068C30.4941 16.082 30.7131 16.805 31.1511 17.237C31.5891 17.663 32.2371 17.876 33.0951 17.876C33.6591 17.876 34.3401 17.765 35.1381 17.543V19.811C34.3821 20.063 33.5511 20.189 32.6451 20.189ZM41.4851 20.189C39.6311 20.189 38.2661 19.784 37.3901 18.974C36.5141 18.164 36.0761 16.862 36.0761 15.068C36.0761 13.436 36.4721 12.185 37.2641 11.315C38.0621 10.439 39.1901 10.001 40.6481 10.001C42.0461 10.001 43.1081 10.442 43.8341 11.324C44.5601 12.2 44.9231 13.478 44.9231 15.158V15.905H38.9471C38.9891 16.685 39.2261 17.234 39.6581 17.552C40.0901 17.864 40.8341 18.02 41.8901 18.02C42.2741 18.02 42.6761 17.993 43.0961 17.939C43.5221 17.879 43.9481 17.801 44.3741 17.705V19.856C43.8461 19.976 43.3481 20.06 42.8801 20.108C42.4121 20.162 41.9471 20.189 41.4851 20.189ZM40.6211 11.819C40.0871 11.819 39.6761 11.996 39.3881 12.35C39.1061 12.704 38.9561 13.34 38.9381 14.258H42.2501C42.2321 13.346 42.0851 12.713 41.8091 12.359C41.5391 11.999 41.1431 11.819 40.6211 11.819ZM46.5105 20V10.154H48.8775L49.0665 11.162H49.2015C49.9035 10.388 50.8245 10.001 51.9645 10.001C52.4925 10.001 52.9725 10.103 53.4045 10.307C53.8365 10.505 54.1905 10.829 54.4665 11.279C54.8925 10.823 55.3605 10.496 55.8705 10.298C56.3865 10.1 56.9025 10.001 57.4185 10.001C58.0485 10.001 58.6095 10.13 59.1015 10.388C59.5935 10.64 59.9805 11.051 60.2625 11.621C60.5445 12.185 60.6855 12.935 60.6855 13.871V20H57.8235V14.024C57.8235 13.436 57.7035 13.031 57.4635 12.809C57.2235 12.581 56.9145 12.467 56.5365 12.467C56.2665 12.467 55.9935 12.521 55.7175 12.629C55.4475 12.731 55.2105 12.902 55.0065 13.142C55.0245 13.346 55.0335 13.559 55.0335 13.781V20H52.2255V14.024C52.2255 13.436 52.1145 13.031 51.8925 12.809C51.6705 12.581 51.3705 12.467 50.9925 12.467C50.6985 12.467 50.4045 12.536 50.1105 12.674C49.8165 12.806 49.5705 13.01 49.3725 13.286V20H46.5105ZM67.7116 20.189C65.8576 20.189 64.4926 19.784 63.6166 18.974C62.7406 18.164 62.3026 16.862 62.3026 15.068C62.3026 13.436 62.6986 12.185 63.4906 11.315C64.2886 10.439 65.4166 10.001 66.8746 10.001C68.2726 10.001 69.3346 10.442 70.0606 11.324C70.7866 12.2 71.1496 13.478 71.1496 15.158V15.905H65.1736C65.2156 16.685 65.4526 17.234 65.8846 17.552C66.3166 17.864 67.0606 18.02 68.1166 18.02C68.5006 18.02 68.9026 17.993 69.3226 17.939C69.7486 17.879 70.1746 17.801 70.6006 17.705V19.856C70.0726 19.976 69.5746 20.06 69.1066 20.108C68.6386 20.162 68.1736 20.189 67.7116 20.189ZM66.8476 11.819C66.3136 11.819 65.9026 11.996 65.6146 12.35C65.3326 12.704 65.1826 13.34 65.1646 14.258H68.4766C68.4586 13.346 68.3116 12.713 68.0356 12.359C67.7656 11.999 67.3696 11.819 66.8476 11.819ZM72.737 20V10.154H75.104L75.293 11.153H75.428C76.178 10.385 77.141 10.001 78.317 10.001C78.965 10.001 79.541 10.13 80.045 10.388C80.555 10.64 80.954 11.051 81.242 11.621C81.53 12.185 81.674 12.932 81.674 13.862V20H78.812V14.042C78.812 13.448 78.686 13.037 78.434 12.809C78.188 12.581 77.849 12.467 77.417 12.467C77.093 12.467 76.766 12.533 76.436 12.665C76.106 12.791 75.827 12.992 75.599 13.268V20H72.737ZM88.1239 20.18C86.9359 20.18 86.0209 19.886 85.3789 19.298C84.7429 18.704 84.4249 17.765 84.4249 16.481V12.413H82.8229V10.154H84.4249L84.9469 6.68H87.2869V10.154H89.8789V12.413H87.2869V16.031C87.2869 16.709 87.4129 17.177 87.6649 17.435C87.9229 17.693 88.3369 17.822 88.9069 17.822C89.1829 17.822 89.5279 17.783 89.9419 17.705V19.973C89.6839 20.033 89.3929 20.081 89.0689 20.117C88.7449 20.159 88.4299 20.18 88.1239 20.18ZM94.0127 20.189C93.4487 20.189 92.8997 20.153 92.3657 20.081C91.8317 20.009 91.3337 19.901 90.8717 19.757V17.651C91.8497 17.945 92.8847 18.092 93.9767 18.092C94.6247 18.092 95.0807 18.008 95.3447 17.84C95.6147 17.666 95.7497 17.426 95.7497 17.12C95.7497 16.88 95.6807 16.697 95.5427 16.571C95.4107 16.439 95.1827 16.34 94.8587 16.274L93.2567 15.986C92.3327 15.812 91.6607 15.491 91.2407 15.023C90.8207 14.555 90.6107 13.928 90.6107 13.142C90.6107 12.2 90.9887 11.441 91.7447 10.865C92.5067 10.289 93.6737 10.001 95.2457 10.001C95.7257 10.001 96.1907 10.028 96.6407 10.082C97.0967 10.136 97.5077 10.211 97.8737 10.307V12.413C97.0817 12.197 96.2327 12.089 95.3267 12.089C94.5107 12.089 93.9647 12.188 93.6887 12.386C93.4127 12.584 93.2747 12.815 93.2747 13.079C93.2747 13.295 93.3377 13.469 93.4637 13.601C93.5957 13.733 93.8267 13.832 94.1567 13.898L95.7587 14.186C96.6347 14.354 97.2947 14.654 97.7387 15.086C98.1887 15.518 98.4137 16.163 98.4137 17.021C98.4137 18.005 98.0297 18.779 97.2617 19.343C96.4997 19.907 95.4167 20.189 94.0127 20.189Z" fill="black"/>
<rect x="119.521" y="0.5" width="78" height="25" rx="3.5" fill="white" stroke="#9C9C9C"/>
<path d="M129.392 19V18.195L132.325 14.359C132.815 13.7243 133.158 13.1877 133.354 12.749C133.555 12.3057 133.655 11.881 133.655 11.475C133.655 10.8637 133.48 10.4227 133.13 10.152C132.785 9.87667 132.253 9.739 131.534 9.739C130.717 9.739 129.964 9.87433 129.273 10.145V8.899C129.576 8.78233 129.945 8.689 130.379 8.619C130.818 8.54433 131.249 8.507 131.674 8.507C132.789 8.507 133.643 8.73333 134.236 9.186C134.833 9.63867 135.132 10.3573 135.132 11.342C135.132 11.888 135.018 12.4293 134.789 12.966C134.565 13.5027 134.164 14.1397 133.585 14.877L131.359 17.747H135.671V19H129.392ZM140.76 19.133C139.999 19.133 139.341 18.9557 138.786 18.601C138.235 18.2417 137.808 17.6723 137.505 16.893C137.206 16.1137 137.057 15.0893 137.057 13.82C137.057 12.5507 137.206 11.5263 137.505 10.747C137.803 9.96767 138.228 9.40067 138.779 9.046C139.334 8.68667 139.994 8.507 140.76 8.507C141.525 8.507 142.185 8.68667 142.741 9.046C143.296 9.40067 143.723 9.96767 144.022 10.747C144.32 11.5263 144.47 12.5507 144.47 13.82C144.47 15.0893 144.318 16.1137 144.015 16.893C143.716 17.6723 143.289 18.2417 142.734 18.601C142.178 18.9557 141.52 19.133 140.76 19.133ZM140.76 17.887C141.217 17.887 141.611 17.7657 141.943 17.523C142.279 17.2803 142.538 16.865 142.72 16.277C142.902 15.6843 142.993 14.87 142.993 13.834C142.993 12.7887 142.902 11.9697 142.72 11.377C142.538 10.7843 142.279 10.3667 141.943 10.124C141.611 9.87667 141.217 9.753 140.76 9.753C140.302 9.753 139.906 9.87433 139.57 10.117C139.238 10.3597 138.982 10.7773 138.8 11.37C138.618 11.958 138.527 12.77 138.527 13.806C138.527 14.8513 138.618 15.6703 138.8 16.263C138.982 16.8557 139.238 17.2757 139.57 17.523C139.906 17.7657 140.302 17.887 140.76 17.887ZM148.018 19V10.425L145.526 12.189V10.761L148.557 8.605H149.509V19H148.018ZM155.478 19.133C154.185 19.133 153.217 18.888 152.573 18.398C151.934 17.908 151.614 17.2453 151.614 16.41C151.614 15.8033 151.784 15.2737 152.125 14.821C152.466 14.3637 152.944 14.009 153.56 13.757C152.972 13.4583 152.554 13.1037 152.307 12.693C152.06 12.2823 151.936 11.8063 151.936 11.265C151.936 10.4297 152.242 9.76233 152.853 9.263C153.464 8.759 154.342 8.507 155.485 8.507C156.558 8.507 157.396 8.74033 157.998 9.207C158.605 9.67367 158.908 10.313 158.908 11.125C158.908 11.671 158.768 12.161 158.488 12.595C158.213 13.029 157.781 13.3883 157.193 13.673C157.94 13.9717 158.465 14.331 158.768 14.751C159.076 15.171 159.23 15.6797 159.23 16.277C159.23 17.117 158.91 17.803 158.271 18.335C157.636 18.867 156.705 19.133 155.478 19.133ZM155.919 13.267C155.975 13.281 156.029 13.295 156.08 13.309C156.617 13.0523 157.004 12.7607 157.242 12.434C157.48 12.1073 157.599 11.713 157.599 11.251C157.599 10.7143 157.415 10.3037 157.046 10.019C156.677 9.73433 156.15 9.592 155.464 9.592C154.759 9.592 154.232 9.739 153.882 10.033C153.537 10.327 153.364 10.719 153.364 11.209C153.364 11.545 153.436 11.8367 153.581 12.084C153.726 12.3267 153.982 12.5437 154.351 12.735C154.724 12.9217 155.247 13.099 155.919 13.267ZM153.028 16.256C153.028 16.8347 153.233 17.278 153.644 17.586C154.055 17.894 154.668 18.048 155.485 18.048C156.255 18.048 156.836 17.901 157.228 17.607C157.625 17.313 157.823 16.9 157.823 16.368C157.823 16.0227 157.746 15.731 157.592 15.493C157.438 15.2503 157.174 15.0403 156.801 14.863C156.432 14.6857 155.924 14.5177 155.275 14.359C155.037 14.303 154.813 14.24 154.603 14.17C154.08 14.3753 153.686 14.6623 153.42 15.031C153.159 15.3997 153.028 15.808 153.028 16.256Z" fill="black"/>
<path d="M181.697 15.8014C182.094 16.3794 182.948 16.3794 183.345 15.8014L186.944 10.5665C187.4 9.90303 186.925 9 186.12 9H178.922C178.117 9 177.642 9.90303 178.098 10.5665L181.697 15.8014Z" fill="black"/>
<defs>
<linearGradient id="paint0_linear" x1="112" y1="230" x2="112" y2="336" gradientUnits="userSpaceOnUse">
<stop stop-color="#FF8F5E" stop-opacity="0.8"/>
<stop offset="1" stop-color="#FF8493"/>
</linearGradient>
<linearGradient id="paint1_linear" x1="232" y1="167" x2="232" y2="336" gradientUnits="userSpaceOnUse">
<stop stop-color="#FF8F5E" stop-opacity="0.8"/>
<stop offset="1" stop-color="#FF8493"/>
</linearGradient>
<linearGradient id="paint2_linear" x1="352" y1="203" x2="352" y2="336" gradientUnits="userSpaceOnUse">
<stop stop-color="#FF8F5E" stop-opacity="0.8"/>
<stop offset="1" stop-color="#FF8493"/>
</linearGradient>
<linearGradient id="paint3_linear" x1="472" y1="298" x2="472" y2="336" gradientUnits="userSpaceOnUse">
<stop stop-color="#FF8F5E" stop-opacity="0.8"/>
<stop offset="1" stop-color="#FF8493"/>
</linearGradient>
<linearGradient id="paint4_linear" x1="592" y1="134" x2="592" y2="336" gradientUnits="userSpaceOnUse">
<stop stop-color="#FF8F5E" stop-opacity="0.8"/>
<stop offset="1" stop-color="#FF8493"/>
</linearGradient>
<linearGradient id="paint5_linear" x1="712" y1="221" x2="712" y2="336" gradientUnits="userSpaceOnUse">
<stop stop-color="#FF8F5E" stop-opacity="0.8"/>
<stop offset="1" stop-color="#FF8493"/>
</linearGradient>
<linearGradient id="paint6_linear" x1="832" y1="221" x2="832" y2="336" gradientUnits="userSpaceOnUse">
<stop stop-color="#FF8F5E" stop-opacity="0.8"/>
<stop offset="1" stop-color="#FF8493"/>
</linearGradient>
</defs>
</svg>
