<svg width="448" height="300" viewBox="0 0 448 300" fill="none" xmlns="http://www.w3.org/2000/svg">
<g filter="url(#filter0_d)">
<rect x="10" y="8" width="428" height="280" rx="10" fill="white"/>
<rect x="10.5" y="8.5" width="427" height="279" rx="9.5" stroke="#F4F1FA"/>
</g>
<path d="M261.773 117.098C261.353 117.098 260.914 117.082 260.457 117.049C260 117.021 259.549 116.979 259.106 116.923V106.829C259.549 106.736 260.023 106.663 260.527 106.612C261.031 106.556 261.554 106.528 262.095 106.528C263.537 106.528 264.582 106.759 265.231 107.221C265.884 107.683 266.211 108.383 266.211 109.321C266.211 109.876 266.066 110.366 265.777 110.791C265.492 111.211 265.044 111.498 264.433 111.652C265.11 111.783 265.623 112.065 265.973 112.499C266.328 112.928 266.505 113.481 266.505 114.158C266.505 114.793 266.349 115.329 266.036 115.768C265.723 116.202 265.222 116.533 264.531 116.762C263.84 116.986 262.921 117.098 261.773 117.098ZM262.256 107.662C261.911 107.662 261.603 107.674 261.332 107.697C261.061 107.72 260.805 107.755 260.562 107.802V111.113H262.424C263.287 111.113 263.899 110.971 264.258 110.686C264.622 110.397 264.804 109.965 264.804 109.391C264.804 108.78 264.61 108.339 264.223 108.068C263.836 107.797 263.18 107.662 262.256 107.662ZM262.116 115.964C262.872 115.964 263.467 115.896 263.901 115.761C264.335 115.626 264.645 115.42 264.832 115.145C265.019 114.87 265.112 114.522 265.112 114.102C265.112 113.477 264.914 113.015 264.517 112.716C264.12 112.417 263.49 112.268 262.627 112.268H260.562V115.88C260.823 115.913 261.078 115.936 261.325 115.95C261.577 115.959 261.841 115.964 262.116 115.964ZM270.511 117.126C270.03 117.126 269.601 117.037 269.223 116.86C268.849 116.678 268.555 116.384 268.341 115.978C268.126 115.572 268.019 115.031 268.019 114.354V109.384H269.482V114.27C269.482 114.863 269.61 115.273 269.867 115.502C270.128 115.731 270.466 115.845 270.882 115.845C271.19 115.845 271.514 115.775 271.855 115.635C272.2 115.495 272.494 115.269 272.737 114.956V109.384H274.193V117H272.975L272.877 116.188H272.8C272.487 116.501 272.135 116.736 271.743 116.895C271.355 117.049 270.945 117.126 270.511 117.126ZM278.248 117.14C277.436 117.14 276.699 117.035 276.036 116.825V115.698C276.759 115.913 277.494 116.02 278.241 116.02C278.852 116.02 279.291 115.922 279.557 115.726C279.828 115.53 279.963 115.255 279.963 114.9C279.963 114.601 279.884 114.375 279.725 114.221C279.571 114.062 279.31 113.943 278.941 113.864L277.849 113.647C277.144 113.507 276.638 113.262 276.33 112.912C276.027 112.562 275.875 112.105 275.875 111.54C275.875 110.873 276.136 110.327 276.659 109.902C277.182 109.477 277.987 109.265 279.074 109.265C279.41 109.265 279.734 109.286 280.047 109.328C280.364 109.365 280.663 109.421 280.943 109.496V110.623C280.35 110.464 279.739 110.385 279.109 110.385C278.409 110.385 277.926 110.495 277.66 110.714C277.394 110.929 277.261 111.192 277.261 111.505C277.261 111.766 277.333 111.981 277.478 112.149C277.627 112.312 277.886 112.436 278.255 112.52L279.347 112.73C280.042 112.875 280.549 113.113 280.866 113.444C281.188 113.775 281.349 114.24 281.349 114.837C281.349 115.551 281.083 116.113 280.551 116.524C280.024 116.935 279.256 117.14 278.248 117.14ZM282.923 117V109.384H284.386V117H282.923ZM283.658 107.9C283.014 107.9 282.692 107.62 282.692 107.06C282.692 106.794 282.773 106.586 282.937 106.437C283.1 106.283 283.34 106.206 283.658 106.206C283.975 106.206 284.215 106.283 284.379 106.437C284.542 106.586 284.624 106.794 284.624 107.06C284.624 107.62 284.302 107.9 283.658 107.9ZM286.508 117V109.384H287.726L287.831 110.217H287.915C288.536 109.582 289.315 109.265 290.253 109.265C290.738 109.265 291.168 109.356 291.541 109.538C291.919 109.72 292.215 110.016 292.43 110.427C292.645 110.833 292.752 111.377 292.752 112.058V117H291.289V112.135C291.289 111.542 291.161 111.129 290.904 110.896C290.647 110.663 290.297 110.546 289.854 110.546C289.541 110.546 289.21 110.616 288.86 110.756C288.515 110.891 288.218 111.12 287.971 111.442V117H286.508ZM298.185 117.14C296.92 117.14 295.973 116.832 295.343 116.216C294.713 115.595 294.398 114.587 294.398 113.192C294.398 111.876 294.685 110.894 295.259 110.245C295.833 109.592 296.619 109.265 297.618 109.265C298.598 109.265 299.351 109.592 299.879 110.245C300.406 110.898 300.67 111.892 300.67 113.227V113.647H295.875C295.903 114.506 296.115 115.11 296.512 115.46C296.908 115.81 297.529 115.985 298.374 115.985C298.663 115.985 298.966 115.962 299.284 115.915C299.601 115.864 299.932 115.791 300.278 115.698V116.846C299.9 116.949 299.54 117.023 299.2 117.07C298.859 117.117 298.521 117.14 298.185 117.14ZM297.604 110.266C297.076 110.266 296.659 110.448 296.351 110.812C296.047 111.171 295.886 111.808 295.868 112.723H299.284C299.27 111.813 299.118 111.176 298.829 110.812C298.539 110.448 298.131 110.266 297.604 110.266ZM304.252 117.14C303.44 117.14 302.702 117.035 302.04 116.825V115.698C302.763 115.913 303.498 116.02 304.245 116.02C304.856 116.02 305.295 115.922 305.561 115.726C305.831 115.53 305.967 115.255 305.967 114.9C305.967 114.601 305.887 114.375 305.729 114.221C305.575 114.062 305.313 113.943 304.945 113.864L303.853 113.647C303.148 113.507 302.642 113.262 302.334 112.912C302.03 112.562 301.879 112.105 301.879 111.54C301.879 110.873 302.14 110.327 302.663 109.902C303.185 109.477 303.99 109.265 305.078 109.265C305.414 109.265 305.738 109.286 306.051 109.328C306.368 109.365 306.667 109.421 306.947 109.496V110.623C306.354 110.464 305.743 110.385 305.113 110.385C304.413 110.385 303.93 110.495 303.664 110.714C303.398 110.929 303.265 111.192 303.265 111.505C303.265 111.766 303.337 111.981 303.482 112.149C303.631 112.312 303.89 112.436 304.259 112.52L305.351 112.73C306.046 112.875 306.552 113.113 306.87 113.444C307.192 113.775 307.353 114.24 307.353 114.837C307.353 115.551 307.087 116.113 306.555 116.524C306.027 116.935 305.26 117.14 304.252 117.14ZM310.872 117.14C310.06 117.14 309.323 117.035 308.66 116.825V115.698C309.383 115.913 310.118 116.02 310.865 116.02C311.476 116.02 311.915 115.922 312.181 115.726C312.452 115.53 312.587 115.255 312.587 114.9C312.587 114.601 312.508 114.375 312.349 114.221C312.195 114.062 311.934 113.943 311.565 113.864L310.473 113.647C309.768 113.507 309.262 113.262 308.954 112.912C308.651 112.562 308.499 112.105 308.499 111.54C308.499 110.873 308.76 110.327 309.283 109.902C309.806 109.477 310.611 109.265 311.698 109.265C312.034 109.265 312.358 109.286 312.671 109.328C312.988 109.365 313.287 109.421 313.567 109.496V110.623C312.974 110.464 312.363 110.385 311.733 110.385C311.033 110.385 310.55 110.495 310.284 110.714C310.018 110.929 309.885 111.192 309.885 111.505C309.885 111.766 309.957 111.981 310.102 112.149C310.251 112.312 310.51 112.436 310.879 112.52L311.971 112.73C312.666 112.875 313.173 113.113 313.49 113.444C313.812 113.775 313.973 114.24 313.973 114.837C313.973 115.551 313.707 116.113 313.175 116.524C312.648 116.935 311.88 117.14 310.872 117.14ZM259.134 135V124.64H260.919L264.314 132.039L267.653 124.64H269.438V135H268.045V126.726L264.93 133.544H263.642L260.527 126.845V135H259.134ZM273.658 135.126C272.921 135.126 272.342 134.937 271.922 134.559C271.507 134.181 271.299 133.665 271.299 133.012C271.299 132.335 271.525 131.806 271.978 131.423C272.435 131.04 273.17 130.805 274.183 130.716L275.772 130.555V130.072C275.772 129.433 275.618 128.999 275.31 128.77C275.002 128.537 274.524 128.42 273.875 128.42C273.586 128.42 273.259 128.446 272.895 128.497C272.531 128.548 272.172 128.632 271.817 128.749V127.601C272.158 127.489 272.533 127.405 272.944 127.349C273.355 127.293 273.74 127.265 274.099 127.265C274.794 127.265 275.371 127.356 275.828 127.538C276.29 127.715 276.633 128.014 276.857 128.434C277.086 128.854 277.2 129.428 277.2 130.156V135H275.989L275.884 134.181H275.8C275.557 134.494 275.247 134.729 274.869 134.888C274.496 135.047 274.092 135.126 273.658 135.126ZM272.762 132.879C272.762 133.663 273.198 134.055 274.071 134.055C274.37 134.055 274.666 133.994 274.96 133.873C275.259 133.752 275.529 133.549 275.772 133.264V131.465L274.309 131.612C273.758 131.668 273.362 131.801 273.119 132.011C272.881 132.221 272.762 132.51 272.762 132.879ZM279.242 135V127.384H280.46L280.565 128.217H280.649C281.269 127.582 282.049 127.265 282.987 127.265C283.472 127.265 283.901 127.356 284.275 127.538C284.653 127.72 284.949 128.016 285.164 128.427C285.378 128.833 285.486 129.377 285.486 130.058V135H284.023V130.135C284.023 129.542 283.894 129.129 283.638 128.896C283.381 128.663 283.031 128.546 282.588 128.546C282.275 128.546 281.944 128.616 281.594 128.756C281.248 128.891 280.952 129.12 280.705 129.442V135H279.242ZM289.469 135.126C288.732 135.126 288.153 134.937 287.733 134.559C287.318 134.181 287.11 133.665 287.11 133.012C287.11 132.335 287.337 131.806 287.789 131.423C288.247 131.04 288.982 130.805 289.994 130.716L291.583 130.555V130.072C291.583 129.433 291.429 128.999 291.121 128.77C290.813 128.537 290.335 128.42 289.686 128.42C289.397 128.42 289.07 128.446 288.706 128.497C288.342 128.548 287.983 128.632 287.628 128.749V127.601C287.969 127.489 288.345 127.405 288.755 127.349C289.166 127.293 289.551 127.265 289.91 127.265C290.606 127.265 291.182 127.356 291.639 127.538C292.101 127.715 292.444 128.014 292.668 128.434C292.897 128.854 293.011 129.428 293.011 130.156V135H291.8L291.695 134.181H291.611C291.369 134.494 291.058 134.729 290.68 134.888C290.307 135.047 289.903 135.126 289.469 135.126ZM288.573 132.879C288.573 133.663 289.01 134.055 289.882 134.055C290.181 134.055 290.477 133.994 290.771 133.873C291.07 133.752 291.341 133.549 291.583 133.264V131.465L290.12 131.612C289.57 131.668 289.173 131.801 288.93 132.011C288.692 132.221 288.573 132.51 288.573 132.879ZM297.51 138.22C297.141 138.22 296.749 138.192 296.334 138.136C295.923 138.085 295.536 138.003 295.172 137.891V136.701C295.573 136.822 295.961 136.911 296.334 136.967C296.712 137.028 297.071 137.058 297.412 137.058C298.21 137.058 298.796 136.892 299.169 136.561C299.547 136.23 299.736 135.663 299.736 134.86V134.195H299.659C299.43 134.461 299.141 134.676 298.791 134.839C298.446 135.002 298.047 135.084 297.594 135.084C297.071 135.084 296.588 134.96 296.145 134.713C295.702 134.461 295.345 134.062 295.074 133.516C294.803 132.965 294.668 132.242 294.668 131.346C294.668 128.625 296.003 127.265 298.672 127.265C299.097 127.265 299.533 127.298 299.981 127.363C300.429 127.428 300.835 127.519 301.199 127.636V134.615C301.199 135.898 300.891 136.82 300.275 137.38C299.664 137.94 298.742 138.22 297.51 138.22ZM298.084 133.859C298.387 133.859 298.686 133.798 298.98 133.677C299.279 133.556 299.531 133.367 299.736 133.11V128.56C299.582 128.518 299.4 128.485 299.19 128.462C298.985 128.434 298.772 128.42 298.553 128.42C297.774 128.42 297.179 128.637 296.768 129.071C296.357 129.505 296.152 130.219 296.152 131.213C296.152 131.904 296.234 132.44 296.397 132.823C296.565 133.206 296.794 133.474 297.083 133.628C297.372 133.782 297.706 133.859 298.084 133.859ZM306.716 135.14C305.451 135.14 304.504 134.832 303.874 134.216C303.244 133.595 302.929 132.587 302.929 131.192C302.929 129.876 303.216 128.894 303.79 128.245C304.364 127.592 305.15 127.265 306.149 127.265C307.129 127.265 307.883 127.592 308.41 128.245C308.937 128.898 309.201 129.892 309.201 131.227V131.647H304.406C304.434 132.506 304.646 133.11 305.043 133.46C305.44 133.81 306.06 133.985 306.905 133.985C307.194 133.985 307.498 133.962 307.815 133.915C308.132 133.864 308.464 133.791 308.809 133.698V134.846C308.431 134.949 308.072 135.023 307.731 135.07C307.39 135.117 307.052 135.14 306.716 135.14ZM306.135 128.266C305.608 128.266 305.19 128.448 304.882 128.812C304.579 129.171 304.418 129.808 304.399 130.723H307.815C307.801 129.813 307.649 129.176 307.36 128.812C307.071 128.448 306.662 128.266 306.135 128.266ZM310.837 135V127.384H312.055L312.16 128.224H312.244C312.813 127.585 313.539 127.265 314.421 127.265C314.841 127.265 315.216 127.349 315.548 127.517C315.884 127.68 316.147 127.949 316.339 128.322C316.689 127.939 317.067 127.669 317.473 127.51C317.883 127.347 318.282 127.265 318.67 127.265C319.127 127.265 319.533 127.356 319.888 127.538C320.242 127.72 320.522 128.016 320.728 128.427C320.933 128.833 321.036 129.377 321.036 130.058V135H319.58V130.128C319.58 129.531 319.456 129.118 319.209 128.889C318.966 128.66 318.656 128.546 318.278 128.546C318.012 128.546 317.729 128.609 317.431 128.735C317.132 128.856 316.871 129.071 316.647 129.379C316.67 129.575 316.682 129.787 316.682 130.016V135H315.247V130.128C315.247 129.531 315.13 129.118 314.897 128.889C314.663 128.66 314.358 128.546 313.98 128.546C313.69 128.546 313.392 128.618 313.084 128.763C312.776 128.908 312.514 129.143 312.3 129.47V135H310.837ZM326.478 135.14C325.214 135.14 324.266 134.832 323.636 134.216C323.006 133.595 322.691 132.587 322.691 131.192C322.691 129.876 322.978 128.894 323.552 128.245C324.126 127.592 324.913 127.265 325.911 127.265C326.891 127.265 327.645 127.592 328.172 128.245C328.7 128.898 328.963 129.892 328.963 131.227V131.647H324.168C324.196 132.506 324.409 133.11 324.805 133.46C325.202 133.81 325.823 133.985 326.667 133.985C326.957 133.985 327.26 133.962 327.577 133.915C327.895 133.864 328.226 133.791 328.571 133.698V134.846C328.193 134.949 327.834 135.023 327.493 135.07C327.153 135.117 326.814 135.14 326.478 135.14ZM325.897 128.266C325.37 128.266 324.952 128.448 324.644 128.812C324.341 129.171 324.18 129.808 324.161 130.723H327.577C327.563 129.813 327.412 129.176 327.122 128.812C326.833 128.448 326.425 128.266 325.897 128.266ZM330.599 135V127.384H331.817L331.922 128.217H332.006C332.627 127.582 333.406 127.265 334.344 127.265C334.83 127.265 335.259 127.356 335.632 127.538C336.01 127.72 336.307 128.016 336.521 128.427C336.736 128.833 336.843 129.377 336.843 130.058V135H335.38V130.135C335.38 129.542 335.252 129.129 334.995 128.896C334.739 128.663 334.389 128.546 333.945 128.546C333.633 128.546 333.301 128.616 332.951 128.756C332.606 128.891 332.31 129.12 332.062 129.442V135H330.599ZM341.933 135.133C341.112 135.133 340.475 134.925 340.022 134.51C339.574 134.095 339.35 133.43 339.35 132.515V128.567H337.978V127.384H339.35L339.602 124.64H340.813V127.384H343.081V128.567H340.813V132.277C340.813 132.884 340.932 133.306 341.17 133.544C341.413 133.782 341.784 133.901 342.283 133.901C342.535 133.901 342.831 133.864 343.172 133.789V134.993C342.761 135.086 342.348 135.133 341.933 135.133Z" fill="black"/>
<path d="M384.965 117V108.852L382.543 110.546V108.775L385.637 106.605H386.841V117H384.965ZM388.968 119.331C389.146 118.92 389.29 118.535 389.402 118.176C389.514 117.817 389.584 117.457 389.612 117.098C389.29 117.07 389.031 116.956 388.835 116.755C388.644 116.55 388.548 116.284 388.548 115.957C388.548 115.598 388.656 115.318 388.87 115.117C389.085 114.912 389.374 114.809 389.738 114.809C390.569 114.809 390.984 115.308 390.984 116.307C390.984 116.844 390.896 117.376 390.718 117.903C390.541 118.435 390.31 118.911 390.025 119.331H388.968ZM392.559 117L395.975 108.201H391.516V106.64H397.991V107.648L394.484 117H392.559ZM401.206 117.133C400.74 117.133 400.282 117.098 399.834 117.028C399.391 116.958 398.973 116.862 398.581 116.741V115.313C398.973 115.43 399.393 115.523 399.841 115.593C400.294 115.663 400.728 115.698 401.143 115.698C401.937 115.698 402.518 115.556 402.886 115.271C403.26 114.986 403.446 114.566 403.446 114.011C403.446 113.642 403.353 113.337 403.166 113.094C402.98 112.847 402.653 112.653 402.186 112.513C401.72 112.373 401.069 112.28 400.233 112.233L398.924 112.156L399.281 106.64H404.797V108.103H400.947L400.765 110.819L400.919 110.826C402.45 110.915 403.549 111.218 404.216 111.736C404.888 112.249 405.224 112.994 405.224 113.969C405.224 115 404.884 115.787 404.202 116.328C403.526 116.865 402.527 117.133 401.206 117.133ZM408.523 117.133C408.061 117.133 407.606 117.1 407.158 117.035C406.715 116.974 406.295 116.883 405.898 116.762V115.334C406.3 115.455 406.724 115.549 407.172 115.614C407.62 115.679 408.05 115.712 408.46 115.712C409.254 115.712 409.837 115.57 410.21 115.285C410.588 115 410.777 114.587 410.777 114.046C410.777 113.528 410.598 113.127 410.238 112.842C409.884 112.557 409.3 112.415 408.488 112.415H407.067V110.973H408.068C408.876 110.973 409.468 110.835 409.846 110.56C410.224 110.285 410.413 109.893 410.413 109.384C410.413 108.413 409.748 107.928 408.418 107.928C408.031 107.928 407.637 107.961 407.235 108.026C406.834 108.091 406.456 108.187 406.101 108.313V106.885C406.437 106.768 406.832 106.677 407.284 106.612C407.737 106.542 408.178 106.507 408.607 106.507C409.797 106.507 410.696 106.745 411.302 107.221C411.909 107.692 412.212 108.362 412.212 109.23C412.212 109.823 412.051 110.329 411.729 110.749C411.412 111.164 410.971 111.458 410.406 111.631C411.097 111.776 411.627 112.063 411.995 112.492C412.364 112.917 412.548 113.47 412.548 114.151C412.548 115.084 412.215 115.815 411.547 116.342C410.88 116.869 409.872 117.133 408.523 117.133Z" fill="black"/>
<circle cx="249" cy="111" r="4" fill="#9384FF"/>
<path d="M259.134 163V152.64H260.919L264.314 160.039L267.653 152.64H269.438V163H268.045V154.726L264.93 161.544H263.642L260.527 154.845V163H259.134ZM273.658 163.126C272.921 163.126 272.342 162.937 271.922 162.559C271.507 162.181 271.299 161.665 271.299 161.012C271.299 160.335 271.525 159.806 271.978 159.423C272.435 159.04 273.17 158.805 274.183 158.716L275.772 158.555V158.072C275.772 157.433 275.618 156.999 275.31 156.77C275.002 156.537 274.524 156.42 273.875 156.42C273.586 156.42 273.259 156.446 272.895 156.497C272.531 156.548 272.172 156.632 271.817 156.749V155.601C272.158 155.489 272.533 155.405 272.944 155.349C273.355 155.293 273.74 155.265 274.099 155.265C274.794 155.265 275.371 155.356 275.828 155.538C276.29 155.715 276.633 156.014 276.857 156.434C277.086 156.854 277.2 157.428 277.2 158.156V163H275.989L275.884 162.181H275.8C275.557 162.494 275.247 162.729 274.869 162.888C274.496 163.047 274.092 163.126 273.658 163.126ZM272.762 160.879C272.762 161.663 273.198 162.055 274.071 162.055C274.37 162.055 274.666 161.994 274.96 161.873C275.259 161.752 275.529 161.549 275.772 161.264V159.465L274.309 159.612C273.758 159.668 273.362 159.801 273.119 160.011C272.881 160.221 272.762 160.51 272.762 160.879ZM279.242 163V155.384H280.453L280.572 156.392H280.649C280.896 156.028 281.211 155.755 281.594 155.573C281.976 155.391 282.382 155.3 282.812 155.3C283.022 155.3 283.225 155.319 283.421 155.356V156.693C283.309 156.674 283.194 156.663 283.078 156.658C282.966 156.649 282.851 156.644 282.735 156.644C282.375 156.644 282.004 156.726 281.622 156.889C281.239 157.048 280.933 157.29 280.705 157.617V163H279.242ZM284.7 163V151.688H286.163V158.499H287.332L289.628 155.384H291.224L288.543 159.073L291.462 163H289.838L287.346 159.696H286.163V163H284.7ZM295.652 163.14C294.387 163.14 293.44 162.832 292.81 162.216C292.18 161.595 291.865 160.587 291.865 159.192C291.865 157.876 292.152 156.894 292.726 156.245C293.3 155.592 294.086 155.265 295.085 155.265C296.065 155.265 296.819 155.592 297.346 156.245C297.873 156.898 298.137 157.892 298.137 159.227V159.647H293.342C293.37 160.506 293.582 161.11 293.979 161.46C294.376 161.81 294.996 161.985 295.841 161.985C296.13 161.985 296.434 161.962 296.751 161.915C297.068 161.864 297.4 161.791 297.745 161.698V162.846C297.367 162.949 297.008 163.023 296.667 163.07C296.326 163.117 295.988 163.14 295.652 163.14ZM295.071 156.266C294.544 156.266 294.126 156.448 293.818 156.812C293.515 157.171 293.354 157.808 293.335 158.723H296.751C296.737 157.813 296.585 157.176 296.296 156.812C296.007 156.448 295.598 156.266 295.071 156.266ZM302.764 163.133C301.942 163.133 301.305 162.925 300.853 162.51C300.405 162.095 300.181 161.43 300.181 160.515V156.567H298.809V155.384H300.181L300.433 152.64H301.644V155.384H303.912V156.567H301.644V160.277C301.644 160.884 301.763 161.306 302.001 161.544C302.243 161.782 302.614 161.901 303.114 161.901C303.366 161.901 303.662 161.864 304.003 161.789V162.993C303.592 163.086 303.179 163.133 302.764 163.133ZM305.327 163V155.384H306.79V163H305.327ZM306.062 153.9C305.418 153.9 305.096 153.62 305.096 153.06C305.096 152.794 305.178 152.586 305.341 152.437C305.504 152.283 305.745 152.206 306.062 152.206C306.379 152.206 306.62 152.283 306.783 152.437C306.946 152.586 307.028 152.794 307.028 153.06C307.028 153.62 306.706 153.9 306.062 153.9ZM308.912 163V155.384H310.13L310.235 156.217H310.319C310.94 155.582 311.719 155.265 312.657 155.265C313.143 155.265 313.572 155.356 313.945 155.538C314.323 155.72 314.62 156.016 314.834 156.427C315.049 156.833 315.156 157.377 315.156 158.058V163H313.693V158.135C313.693 157.542 313.565 157.129 313.308 156.896C313.052 156.663 312.702 156.546 312.258 156.546C311.946 156.546 311.614 156.616 311.264 156.756C310.919 156.891 310.623 157.12 310.375 157.442V163H308.912ZM319.644 166.22C319.275 166.22 318.883 166.192 318.468 166.136C318.057 166.085 317.67 166.003 317.306 165.891V164.701C317.707 164.822 318.095 164.911 318.468 164.967C318.846 165.028 319.205 165.058 319.546 165.058C320.344 165.058 320.93 164.892 321.303 164.561C321.681 164.23 321.87 163.663 321.87 162.86V162.195H321.793C321.564 162.461 321.275 162.676 320.925 162.839C320.58 163.002 320.181 163.084 319.728 163.084C319.205 163.084 318.722 162.96 318.279 162.713C317.836 162.461 317.479 162.062 317.208 161.516C316.937 160.965 316.802 160.242 316.802 159.346C316.802 156.625 318.137 155.265 320.806 155.265C321.231 155.265 321.667 155.298 322.115 155.363C322.563 155.428 322.969 155.519 323.333 155.636V162.615C323.333 163.898 323.025 164.82 322.409 165.38C321.798 165.94 320.876 166.22 319.644 166.22ZM320.218 161.859C320.521 161.859 320.82 161.798 321.114 161.677C321.413 161.556 321.665 161.367 321.87 161.11V156.56C321.716 156.518 321.534 156.485 321.324 156.462C321.119 156.434 320.906 156.42 320.687 156.42C319.908 156.42 319.313 156.637 318.902 157.071C318.491 157.505 318.286 158.219 318.286 159.213C318.286 159.904 318.368 160.44 318.531 160.823C318.699 161.206 318.928 161.474 319.217 161.628C319.506 161.782 319.84 161.859 320.218 161.859Z" fill="black"/>
<path d="M263.166 237.133C262.27 237.133 261.486 236.949 260.814 236.58C260.142 236.207 259.619 235.628 259.246 234.844C258.877 234.06 258.693 233.052 258.693 231.82C258.693 230.588 258.88 229.58 259.253 228.796C259.626 228.012 260.147 227.436 260.814 227.067C261.486 226.694 262.27 226.507 263.166 226.507C264.067 226.507 264.853 226.694 265.525 227.067C266.197 227.44 266.717 228.019 267.086 228.803C267.459 229.582 267.646 230.588 267.646 231.82C267.646 233.052 267.459 234.06 267.086 234.844C266.713 235.623 266.19 236.2 265.518 236.573C264.846 236.946 264.062 237.133 263.166 237.133ZM263.166 235.894C263.768 235.894 264.288 235.763 264.727 235.502C265.17 235.236 265.511 234.809 265.749 234.221C265.992 233.628 266.113 232.842 266.113 231.862C266.113 230.849 265.992 230.044 265.749 229.447C265.511 228.845 265.17 228.411 264.727 228.145C264.284 227.879 263.763 227.746 263.166 227.746C262.569 227.746 262.048 227.877 261.605 228.138C261.166 228.399 260.826 228.826 260.583 229.419C260.34 230.007 260.219 230.793 260.219 231.778C260.219 232.791 260.34 233.598 260.583 234.2C260.826 234.802 261.166 235.236 261.605 235.502C262.048 235.763 262.569 235.894 263.166 235.894ZM272.522 237.133C271.701 237.133 271.064 236.925 270.611 236.51C270.163 236.095 269.939 235.43 269.939 234.515V230.567H268.567V229.384H269.939L270.191 226.64H271.402V229.384H273.67V230.567H271.402V234.277C271.402 234.884 271.521 235.306 271.759 235.544C272.002 235.782 272.373 235.901 272.872 235.901C273.124 235.901 273.42 235.864 273.761 235.789V236.993C273.35 237.086 272.937 237.133 272.522 237.133ZM275.085 237V225.688H276.548V230.21H276.625C277.218 229.58 277.976 229.265 278.9 229.265C279.362 229.265 279.775 229.356 280.139 229.538C280.508 229.72 280.797 230.014 281.007 230.42C281.222 230.826 281.329 231.37 281.329 232.051V237H279.866V232.135C279.866 231.538 279.736 231.127 279.474 230.903C279.213 230.674 278.865 230.56 278.431 230.56C278.109 230.56 277.776 230.63 277.43 230.77C277.085 230.905 276.791 231.132 276.548 231.449V237H275.085ZM286.762 237.14C285.497 237.14 284.55 236.832 283.92 236.216C283.29 235.595 282.975 234.587 282.975 233.192C282.975 231.876 283.262 230.894 283.836 230.245C284.41 229.592 285.196 229.265 286.195 229.265C287.175 229.265 287.929 229.592 288.456 230.245C288.983 230.898 289.247 231.892 289.247 233.227V233.647H284.452C284.48 234.506 284.692 235.11 285.089 235.46C285.486 235.81 286.106 235.985 286.951 235.985C287.24 235.985 287.544 235.962 287.861 235.915C288.178 235.864 288.51 235.791 288.855 235.698V236.846C288.477 236.949 288.118 237.023 287.777 237.07C287.436 237.117 287.098 237.14 286.762 237.14ZM286.181 230.266C285.654 230.266 285.236 230.448 284.928 230.812C284.625 231.171 284.464 231.808 284.445 232.723H287.861C287.847 231.813 287.695 231.176 287.406 230.812C287.117 230.448 286.708 230.266 286.181 230.266ZM290.883 237V229.384H292.094L292.213 230.392H292.29C292.537 230.028 292.852 229.755 293.235 229.573C293.618 229.391 294.024 229.3 294.453 229.3C294.663 229.3 294.866 229.319 295.062 229.356V230.693C294.95 230.674 294.836 230.663 294.719 230.658C294.607 230.649 294.493 230.644 294.376 230.644C294.017 230.644 293.646 230.726 293.263 230.889C292.88 231.048 292.575 231.29 292.346 231.617V237H290.883Z" fill="black"/>
<path d="M383.721 163V154.852L381.299 156.546V154.775L384.393 152.605H385.597V163H383.721ZM387.724 165.331C387.902 164.92 388.046 164.535 388.158 164.176C388.27 163.817 388.34 163.457 388.368 163.098C388.046 163.07 387.787 162.956 387.591 162.755C387.4 162.55 387.304 162.284 387.304 161.957C387.304 161.598 387.412 161.318 387.626 161.117C387.841 160.912 388.13 160.809 388.494 160.809C389.325 160.809 389.74 161.308 389.74 162.307C389.74 162.844 389.652 163.376 389.474 163.903C389.297 164.435 389.066 164.911 388.781 165.331H387.724ZM394.466 163.133C393.668 163.133 392.979 162.951 392.401 162.587C391.827 162.223 391.383 161.651 391.071 160.872C390.758 160.088 390.602 159.071 390.602 157.82C390.602 156.569 390.756 155.554 391.064 154.775C391.376 153.991 391.82 153.417 392.394 153.053C392.972 152.689 393.663 152.507 394.466 152.507C395.268 152.507 395.957 152.689 396.531 153.053C397.109 153.417 397.553 153.991 397.861 154.775C398.173 155.554 398.33 156.569 398.33 157.82C398.33 159.071 398.173 160.088 397.861 160.872C397.548 161.651 397.102 162.223 396.524 162.587C395.95 162.951 395.264 163.133 394.466 163.133ZM394.473 161.586C394.888 161.586 395.245 161.474 395.544 161.25C395.847 161.021 396.078 160.634 396.237 160.088C396.4 159.542 396.482 158.791 396.482 157.834C396.482 156.863 396.4 156.105 396.237 155.559C396.078 155.008 395.847 154.621 395.544 154.397C395.245 154.168 394.888 154.054 394.473 154.054C394.053 154.054 393.691 154.168 393.388 154.397C393.089 154.621 392.858 155.006 392.695 155.552C392.531 156.098 392.45 156.849 392.45 157.806C392.45 158.777 392.529 159.537 392.688 160.088C392.851 160.634 393.084 161.021 393.388 161.25C393.691 161.474 394.053 161.586 394.473 161.586ZM401.522 163V154.852L399.1 156.546V154.775L402.194 152.605H403.398V163H401.522ZM408.332 152.507C409.107 152.507 409.786 152.675 410.369 153.011C410.952 153.342 411.407 153.874 411.734 154.607C412.061 155.335 412.224 156.294 412.224 157.484C412.224 159.407 411.809 160.83 410.978 161.754C410.147 162.673 408.967 163.133 407.436 163.133C407.067 163.133 406.708 163.11 406.358 163.063C406.013 163.016 405.693 162.935 405.399 162.818V161.362C405.698 161.474 406.013 161.556 406.344 161.607C406.68 161.658 407.016 161.684 407.352 161.684C408.351 161.684 409.102 161.399 409.606 160.83C410.11 160.261 410.374 159.36 410.397 158.128C410.108 158.333 409.765 158.492 409.368 158.604C408.971 158.716 408.568 158.772 408.157 158.772C407.527 158.772 406.965 158.662 406.47 158.443C405.98 158.224 405.593 157.888 405.308 157.435C405.028 156.978 404.888 156.397 404.888 155.692C404.888 154.675 405.201 153.891 405.826 153.34C406.456 152.785 407.291 152.507 408.332 152.507ZM408.507 157.4C408.824 157.4 409.149 157.353 409.48 157.26C409.816 157.162 410.119 157.008 410.39 156.798C410.362 156.051 410.259 155.466 410.082 155.041C409.905 154.616 409.667 154.318 409.368 154.145C409.069 153.972 408.719 153.886 408.318 153.886C407.819 153.886 407.406 154.026 407.079 154.306C406.757 154.586 406.596 155.029 406.596 155.636C406.596 156.247 406.769 156.695 407.114 156.98C407.464 157.26 407.928 157.4 408.507 157.4Z" fill="black"/>
<path d="M389.635 234.746V233.717L393.387 226.64H395.207L391.714 233.283H394.71L394.906 230.14H396.397V233.283H397.783V234.746H396.397V237H394.71V234.746H389.635ZM398.384 237L401.8 228.201H397.341V226.64H403.816V227.648L400.309 237H398.384ZM408.467 237.133C407.109 237.133 406.101 236.886 405.443 236.391C404.789 235.892 404.463 235.231 404.463 234.41C404.463 233.831 404.626 233.32 404.953 232.877C405.284 232.434 405.755 232.086 406.367 231.834C405.788 231.526 405.375 231.164 405.128 230.749C404.885 230.329 404.764 229.853 404.764 229.321C404.764 228.476 405.083 227.797 405.723 227.284C406.362 226.766 407.293 226.507 408.516 226.507C409.631 226.507 410.501 226.74 411.127 227.207C411.752 227.674 412.065 228.313 412.065 229.125C412.065 229.643 411.934 230.114 411.673 230.539C411.411 230.964 410.991 231.318 410.413 231.603C411.136 231.916 411.642 232.284 411.932 232.709C412.226 233.129 412.373 233.633 412.373 234.221C412.373 235.07 412.044 235.768 411.386 236.314C410.728 236.86 409.755 237.133 408.467 237.133ZM409.02 231.141C409.048 231.15 409.076 231.157 409.104 231.162C409.575 230.919 409.916 230.651 410.126 230.357C410.336 230.058 410.441 229.706 410.441 229.3C410.441 228.824 410.273 228.46 409.937 228.208C409.601 227.956 409.12 227.83 408.495 227.83C407.832 227.83 407.342 227.961 407.025 228.222C406.707 228.483 406.549 228.826 406.549 229.251C406.549 229.554 406.614 229.816 406.745 230.035C406.88 230.25 407.125 230.446 407.48 230.623C407.839 230.8 408.352 230.973 409.02 231.141ZM406.227 234.207C406.227 234.72 406.411 235.117 406.78 235.397C407.153 235.672 407.718 235.81 408.474 235.81C409.192 235.81 409.729 235.682 410.084 235.425C410.438 235.164 410.616 234.797 410.616 234.326C410.616 234.018 410.543 233.757 410.399 233.542C410.254 233.323 410.002 233.129 409.643 232.961C409.288 232.793 408.793 232.632 408.159 232.478C407.967 232.431 407.783 232.382 407.606 232.331C407.139 232.527 406.791 232.793 406.563 233.129C406.339 233.46 406.227 233.82 406.227 234.207Z" fill="black"/>
<circle cx="249" cy="157" r="4" fill="#FFCA4A"/>
<circle cx="249" cy="231" r="4" fill="#D6D6D6"/>
<path d="M259.106 191V180.64H260.59V185.029H265.693V180.64H267.184V191H265.693V186.352H260.59V191H259.106ZM271.837 191.126C271.356 191.126 270.927 191.037 270.549 190.86C270.176 190.678 269.882 190.384 269.667 189.978C269.452 189.572 269.345 189.031 269.345 188.354V183.384H270.808V188.27C270.808 188.863 270.936 189.273 271.193 189.502C271.454 189.731 271.793 189.845 272.208 189.845C272.516 189.845 272.84 189.775 273.181 189.635C273.526 189.495 273.82 189.269 274.063 188.956V183.384H275.519V191H274.301L274.203 190.188H274.126C273.813 190.501 273.461 190.736 273.069 190.895C272.682 191.049 272.271 191.126 271.837 191.126ZM277.628 191V183.384H278.846L278.951 184.224H279.035C279.605 183.585 280.33 183.265 281.212 183.265C281.632 183.265 282.008 183.349 282.339 183.517C282.675 183.68 282.939 183.949 283.13 184.322C283.48 183.939 283.858 183.669 284.264 183.51C284.675 183.347 285.074 183.265 285.461 183.265C285.919 183.265 286.325 183.356 286.679 183.538C287.034 183.72 287.314 184.016 287.519 184.427C287.725 184.833 287.827 185.377 287.827 186.058V191H286.371V186.128C286.371 185.531 286.248 185.118 286 184.889C285.758 184.66 285.447 184.546 285.069 184.546C284.803 184.546 284.521 184.609 284.222 184.735C283.924 184.856 283.662 185.071 283.438 185.379C283.462 185.575 283.473 185.787 283.473 186.016V191H282.038V186.128C282.038 185.531 281.922 185.118 281.688 184.889C281.455 184.66 281.149 184.546 280.771 184.546C280.482 184.546 280.183 184.618 279.875 184.763C279.567 184.908 279.306 185.143 279.091 185.47V191H277.628ZM291.821 191.126C291.084 191.126 290.505 190.937 290.085 190.559C289.67 190.181 289.462 189.665 289.462 189.012C289.462 188.335 289.688 187.806 290.141 187.423C290.598 187.04 291.333 186.805 292.346 186.716L293.935 186.555V186.072C293.935 185.433 293.781 184.999 293.473 184.77C293.165 184.537 292.687 184.42 292.038 184.42C291.749 184.42 291.422 184.446 291.058 184.497C290.694 184.548 290.335 184.632 289.98 184.749V183.601C290.321 183.489 290.696 183.405 291.107 183.349C291.518 183.293 291.903 183.265 292.262 183.265C292.957 183.265 293.534 183.356 293.991 183.538C294.453 183.715 294.796 184.014 295.02 184.434C295.249 184.854 295.363 185.428 295.363 186.156V191H294.152L294.047 190.181H293.963C293.72 190.494 293.41 190.729 293.032 190.888C292.659 191.047 292.255 191.126 291.821 191.126ZM290.925 188.879C290.925 189.663 291.361 190.055 292.234 190.055C292.533 190.055 292.829 189.994 293.123 189.873C293.422 189.752 293.692 189.549 293.935 189.264V187.465L292.472 187.612C291.921 187.668 291.525 187.801 291.282 188.011C291.044 188.221 290.925 188.51 290.925 188.879ZM297.404 191V183.384H298.622L298.727 184.217H298.811C299.432 183.582 300.211 183.265 301.149 183.265C301.635 183.265 302.064 183.356 302.437 183.538C302.815 183.72 303.112 184.016 303.326 184.427C303.541 184.833 303.648 185.377 303.648 186.058V191H302.185V186.135C302.185 185.542 302.057 185.129 301.8 184.896C301.544 184.663 301.194 184.546 300.75 184.546C300.438 184.546 300.106 184.616 299.756 184.756C299.411 184.891 299.115 185.12 298.867 185.442V191H297.404ZM259.106 209V198.829C259.521 198.745 259.972 198.675 260.457 198.619C260.947 198.558 261.465 198.528 262.011 198.528C263.416 198.528 264.463 198.782 265.154 199.291C265.849 199.8 266.197 200.595 266.197 201.678C266.197 202.457 265.992 203.097 265.581 203.596C265.17 204.095 264.575 204.448 263.796 204.653L267.016 209H265.35L262.312 204.856C262.181 204.865 262.044 204.87 261.899 204.87C261.638 204.87 261.404 204.865 261.199 204.856C260.994 204.847 260.784 204.833 260.569 204.814V209H259.106ZM261.92 203.715C262.919 203.715 263.647 203.552 264.104 203.225C264.561 202.898 264.79 202.385 264.79 201.685C264.79 200.971 264.578 200.458 264.153 200.145C263.728 199.828 263.056 199.669 262.137 199.669C261.815 199.669 261.533 199.681 261.29 199.704C261.047 199.727 260.807 199.76 260.569 199.802V203.652C260.816 203.675 261.036 203.692 261.227 203.701C261.423 203.71 261.654 203.715 261.92 203.715ZM271.416 209.14C270.151 209.14 269.204 208.832 268.574 208.216C267.944 207.595 267.629 206.587 267.629 205.192C267.629 203.876 267.916 202.894 268.49 202.245C269.064 201.592 269.85 201.265 270.849 201.265C271.829 201.265 272.582 201.592 273.11 202.245C273.637 202.898 273.901 203.892 273.901 205.227V205.647H269.106C269.134 206.506 269.346 207.11 269.743 207.46C270.139 207.81 270.76 207.985 271.605 207.985C271.894 207.985 272.197 207.962 272.515 207.915C272.832 207.864 273.163 207.791 273.509 207.698V208.846C273.131 208.949 272.771 209.023 272.431 209.07C272.09 209.117 271.752 209.14 271.416 209.14ZM270.835 202.266C270.307 202.266 269.89 202.448 269.582 202.812C269.278 203.171 269.117 203.808 269.099 204.723H272.515C272.501 203.813 272.349 203.176 272.06 202.812C271.77 202.448 271.362 202.266 270.835 202.266ZM277.483 209.14C276.671 209.14 275.933 209.035 275.271 208.825V207.698C275.994 207.913 276.729 208.02 277.476 208.02C278.087 208.02 278.526 207.922 278.792 207.726C279.062 207.53 279.198 207.255 279.198 206.9C279.198 206.601 279.118 206.375 278.96 206.221C278.806 206.062 278.544 205.943 278.176 205.864L277.084 205.647C276.379 205.507 275.873 205.262 275.565 204.912C275.261 204.562 275.11 204.105 275.11 203.54C275.11 202.873 275.371 202.327 275.894 201.902C276.416 201.477 277.221 201.265 278.309 201.265C278.645 201.265 278.969 201.286 279.282 201.328C279.599 201.365 279.898 201.421 280.178 201.496V202.623C279.585 202.464 278.974 202.385 278.344 202.385C277.644 202.385 277.161 202.495 276.895 202.714C276.629 202.929 276.496 203.192 276.496 203.505C276.496 203.766 276.568 203.981 276.713 204.149C276.862 204.312 277.121 204.436 277.49 204.52L278.582 204.73C279.277 204.875 279.783 205.113 280.101 205.444C280.423 205.775 280.584 206.24 280.584 206.837C280.584 207.551 280.318 208.113 279.786 208.524C279.258 208.935 278.491 209.14 277.483 209.14ZM285.16 209.14C284.129 209.14 283.305 208.825 282.689 208.195C282.078 207.56 281.772 206.564 281.772 205.206C281.772 203.843 282.075 202.847 282.682 202.217C283.289 201.582 284.115 201.265 285.16 201.265C286.205 201.265 287.031 201.582 287.638 202.217C288.245 202.847 288.548 203.841 288.548 205.199C288.548 206.552 288.24 207.549 287.624 208.188C287.013 208.823 286.191 209.14 285.16 209.14ZM285.16 207.985C285.552 207.985 285.89 207.901 286.175 207.733C286.46 207.56 286.679 207.273 286.833 206.872C286.987 206.466 287.064 205.913 287.064 205.213C287.064 204.504 286.987 203.946 286.833 203.54C286.679 203.134 286.46 202.847 286.175 202.679C285.89 202.506 285.552 202.42 285.16 202.42C284.768 202.42 284.43 202.506 284.145 202.679C283.86 202.847 283.641 203.132 283.487 203.533C283.333 203.934 283.256 204.485 283.256 205.185C283.256 205.894 283.333 206.452 283.487 206.858C283.641 207.264 283.86 207.553 284.145 207.726C284.43 207.899 284.768 207.985 285.16 207.985ZM292.696 209.126C292.216 209.126 291.786 209.037 291.408 208.86C291.035 208.678 290.741 208.384 290.526 207.978C290.312 207.572 290.204 207.031 290.204 206.354V201.384H291.667V206.27C291.667 206.863 291.796 207.273 292.052 207.502C292.314 207.731 292.652 207.845 293.067 207.845C293.375 207.845 293.7 207.775 294.04 207.635C294.386 207.495 294.68 207.269 294.922 206.956V201.384H296.378V209H295.16L295.062 208.188H294.985C294.673 208.501 294.32 208.736 293.928 208.895C293.541 209.049 293.13 209.126 292.696 209.126ZM298.488 209V201.384H299.699L299.818 202.392H299.895C300.142 202.028 300.457 201.755 300.84 201.573C301.222 201.391 301.628 201.3 302.058 201.3C302.268 201.3 302.471 201.319 302.667 201.356V202.693C302.555 202.674 302.44 202.663 302.324 202.658C302.212 202.649 302.097 202.644 301.981 202.644C301.621 202.644 301.25 202.726 300.868 202.889C300.485 203.048 300.179 203.29 299.951 203.617V209H298.488ZM306.898 209.14C305.755 209.14 304.875 208.825 304.259 208.195C303.648 207.56 303.342 206.562 303.342 205.199C303.342 203.827 303.674 202.828 304.336 202.203C304.999 201.578 305.942 201.265 307.164 201.265C307.44 201.265 307.713 201.281 307.983 201.314C308.259 201.347 308.52 201.393 308.767 201.454V202.658C308.273 202.537 307.797 202.476 307.339 202.476C306.495 202.476 305.869 202.681 305.463 203.092C305.057 203.498 304.854 204.193 304.854 205.178C304.854 206.181 305.046 206.891 305.428 207.306C305.811 207.717 306.373 207.922 307.115 207.922C307.353 207.922 307.605 207.901 307.871 207.859C308.137 207.812 308.436 207.738 308.767 207.635V208.832C308.175 209.037 307.552 209.14 306.898 209.14ZM313.504 209.14C312.239 209.14 311.292 208.832 310.662 208.216C310.032 207.595 309.717 206.587 309.717 205.192C309.717 203.876 310.004 202.894 310.578 202.245C311.152 201.592 311.938 201.265 312.937 201.265C313.917 201.265 314.67 201.592 315.198 202.245C315.725 202.898 315.989 203.892 315.989 205.227V205.647H311.194C311.222 206.506 311.434 207.11 311.831 207.46C312.227 207.81 312.848 207.985 313.693 207.985C313.982 207.985 314.285 207.962 314.603 207.915C314.92 207.864 315.251 207.791 315.597 207.698V208.846C315.219 208.949 314.859 209.023 314.519 209.07C314.178 209.117 313.84 209.14 313.504 209.14ZM312.923 202.266C312.395 202.266 311.978 202.448 311.67 202.812C311.366 203.171 311.205 203.808 311.187 204.723H314.603C314.589 203.813 314.437 203.176 314.148 202.812C313.858 202.448 313.45 202.266 312.923 202.266Z" fill="black"/>
<path d="M393.525 180.507C394.3 180.507 394.979 180.675 395.562 181.011C396.146 181.342 396.601 181.874 396.927 182.607C397.254 183.335 397.417 184.294 397.417 185.484C397.417 187.407 397.002 188.83 396.171 189.754C395.341 190.673 394.16 191.133 392.629 191.133C392.261 191.133 391.901 191.11 391.551 191.063C391.206 191.016 390.886 190.935 390.592 190.818V189.362C390.891 189.474 391.206 189.556 391.537 189.607C391.873 189.658 392.209 189.684 392.545 189.684C393.544 189.684 394.295 189.399 394.799 188.83C395.303 188.261 395.567 187.36 395.59 186.128C395.301 186.333 394.958 186.492 394.561 186.604C394.165 186.716 393.761 186.772 393.35 186.772C392.72 186.772 392.158 186.662 391.663 186.443C391.173 186.224 390.786 185.888 390.501 185.435C390.221 184.978 390.081 184.397 390.081 183.692C390.081 182.675 390.394 181.891 391.019 181.34C391.649 180.785 392.485 180.507 393.525 180.507ZM393.7 185.4C394.018 185.4 394.342 185.353 394.673 185.26C395.009 185.162 395.313 185.008 395.583 184.798C395.555 184.051 395.453 183.466 395.275 183.041C395.098 182.616 394.86 182.318 394.561 182.145C394.263 181.972 393.913 181.886 393.511 181.886C393.012 181.886 392.599 182.026 392.272 182.306C391.95 182.586 391.789 183.029 391.789 183.636C391.789 184.247 391.962 184.695 392.307 184.98C392.657 185.26 393.122 185.4 393.7 185.4ZM401.329 191.133C400.863 191.133 400.405 191.098 399.957 191.028C399.514 190.958 399.096 190.862 398.704 190.741V189.313C399.096 189.43 399.516 189.523 399.964 189.593C400.417 189.663 400.851 189.698 401.266 189.698C402.06 189.698 402.641 189.556 403.009 189.271C403.383 188.986 403.569 188.566 403.569 188.011C403.569 187.642 403.476 187.337 403.289 187.094C403.103 186.847 402.776 186.653 402.309 186.513C401.843 186.373 401.192 186.28 400.356 186.233L399.047 186.156L399.404 180.64H404.92V182.103H401.07L400.888 184.819L401.042 184.826C402.573 184.915 403.672 185.218 404.339 185.736C405.011 186.249 405.347 186.994 405.347 187.969C405.347 189 405.007 189.787 404.325 190.328C403.649 190.865 402.65 191.133 401.329 191.133ZM406.063 191V189.992L408.961 186.289C409.428 185.692 409.755 185.188 409.941 184.777C410.133 184.366 410.228 183.972 410.228 183.594C410.228 183.053 410.067 182.658 409.745 182.411C409.423 182.159 408.915 182.033 408.219 182.033C407.813 182.033 407.412 182.07 407.015 182.145C406.623 182.215 406.264 182.313 405.937 182.439V180.899C406.245 180.782 406.626 180.689 407.078 180.619C407.536 180.544 407.979 180.507 408.408 180.507C409.608 180.507 410.52 180.74 411.145 181.207C411.771 181.669 412.083 182.406 412.083 183.419C412.083 183.956 411.971 184.49 411.747 185.022C411.528 185.554 411.136 186.172 410.571 186.877L408.534 189.439H412.601V191H406.063Z" fill="black"/>
<circle cx="249" cy="185" r="4" fill="#FF8F5E"/>
<circle cx="125" cy="171" r="80" stroke="#D6D6D6" stroke-width="20"/>
<path d="M45 171C45 215.183 80.8172 251 125 251C169.183 251 205 215.183 205 171C205 126.817 169.183 91 125 91" stroke="#5B4DBE" stroke-width="20" stroke-linecap="round"/>
<path d="M45 171C45 215.183 80.8172 251 125 251C169.183 251 205 215.183 205 171C205 126.817 169.183 91 125 91" stroke="#9384FF" stroke-width="20" stroke-linecap="round"/>
<path d="M125 91C169.183 91 205 126.817 205 171C205 215.183 169.183 251 125 251C103.942 251 84.7852 242.864 70.5 229.565" stroke="#FFCA4A" stroke-width="20" stroke-linecap="round"/>
<path d="M125 91C169.183 91 205 126.817 205 171C205 202.829 186.412 230.316 159.5 243.199" stroke="#FF8F5E" stroke-width="20" stroke-linecap="round"/>
<path d="M99.1664 184L107.462 162.631H96.6334V158.84H112.358V161.288L103.841 184H99.1664ZM124.063 184.323C120.765 184.323 118.317 183.722 116.719 182.521C115.133 181.308 114.339 179.705 114.339 177.71C114.339 176.305 114.736 175.064 115.529 173.987C116.334 172.91 117.479 172.066 118.963 171.454C117.558 170.706 116.555 169.828 115.954 168.819C115.365 167.799 115.07 166.643 115.07 165.351C115.07 163.3 115.847 161.651 117.399 160.404C118.952 159.146 121.213 158.517 124.182 158.517C126.891 158.517 129.005 159.084 130.523 160.217C132.042 161.35 132.801 162.903 132.801 164.875C132.801 166.133 132.484 167.278 131.849 168.309C131.215 169.34 130.195 170.202 128.789 170.893C130.546 171.652 131.776 172.548 132.478 173.579C133.192 174.599 133.549 175.823 133.549 177.251C133.549 179.314 132.75 181.008 131.152 182.334C129.554 183.66 127.191 184.323 124.063 184.323ZM125.406 169.771C125.474 169.794 125.542 169.811 125.61 169.822C126.755 169.233 127.582 168.581 128.092 167.867C128.602 167.142 128.857 166.286 128.857 165.3C128.857 164.144 128.449 163.26 127.633 162.648C126.817 162.036 125.65 161.73 124.131 161.73C122.522 161.73 121.332 162.047 120.561 162.682C119.791 163.317 119.405 164.15 119.405 165.181C119.405 165.918 119.564 166.552 119.881 167.085C120.21 167.606 120.805 168.082 121.666 168.513C122.539 168.944 123.786 169.363 125.406 169.771ZM118.623 177.217C118.623 178.464 119.071 179.427 119.966 180.107C120.873 180.776 122.244 181.11 124.08 181.11C125.826 181.11 127.129 180.798 127.99 180.175C128.852 179.54 129.282 178.651 129.282 177.506C129.282 176.758 129.107 176.123 128.755 175.602C128.404 175.069 127.792 174.599 126.919 174.191C126.058 173.783 124.857 173.392 123.315 173.018C122.851 172.905 122.403 172.786 121.972 172.661C120.839 173.137 119.995 173.783 119.439 174.599C118.895 175.404 118.623 176.276 118.623 177.217ZM139.722 178.861C138.708 178.861 137.883 178.525 137.247 177.853C136.617 177.181 136.302 176.125 136.302 174.685C136.302 173.245 136.617 172.189 137.247 171.517C137.877 170.845 138.702 170.509 139.722 170.509C140.736 170.509 141.558 170.845 142.188 171.517C142.818 172.189 143.133 173.245 143.133 174.685C143.133 176.125 142.815 177.181 142.179 177.853C141.549 178.525 140.73 178.861 139.722 178.861ZM140.568 184L146.499 170.68H148.461L142.53 184H140.568ZM139.722 177.331C140.166 177.331 140.529 177.142 140.811 176.764C141.099 176.38 141.243 175.69 141.243 174.694C141.243 173.686 141.099 172.99 140.811 172.606C140.529 172.222 140.166 172.03 139.722 172.03C139.272 172.03 138.903 172.222 138.615 172.606C138.333 172.99 138.192 173.68 138.192 174.676C138.192 175.672 138.333 176.365 138.615 176.755C138.903 177.139 139.272 177.331 139.722 177.331ZM149.307 184.162C148.299 184.162 147.477 183.826 146.841 183.154C146.205 182.482 145.887 181.426 145.887 179.986C145.887 178.546 146.202 177.49 146.832 176.818C147.468 176.146 148.293 175.81 149.307 175.81C150.321 175.81 151.143 176.146 151.773 176.818C152.409 177.49 152.727 178.546 152.727 179.986C152.727 181.426 152.409 182.482 151.773 183.154C151.143 183.826 150.321 184.162 149.307 184.162ZM149.307 182.641C149.757 182.641 150.123 182.452 150.405 182.074C150.693 181.69 150.837 180.997 150.837 179.995C150.837 178.993 150.693 178.3 150.405 177.916C150.123 177.532 149.757 177.34 149.307 177.34C148.863 177.34 148.497 177.532 148.209 177.916C147.921 178.294 147.777 178.981 147.777 179.977C147.777 180.979 147.921 181.675 148.209 182.065C148.497 182.449 148.863 182.641 149.307 182.641Z" fill="#262628"/>
<circle cx="45" cy="172" r="2" fill="white"/>
<circle cx="70" cy="229" r="2" fill="white"/>
<circle cx="159" cy="243" r="2" fill="white"/>
<circle cx="125" cy="91" r="2" fill="white"/>
<path d="M42.695 46.171C41.225 46.171 39.971 45.937 38.933 45.469C37.901 45.001 37.112 44.266 36.566 43.264C36.026 42.262 35.756 40.963 35.756 39.367C35.756 37.075 36.371 35.359 37.601 34.219C38.831 33.079 40.577 32.509 42.839 32.509C43.847 32.509 44.801 32.614 45.701 32.824V35.236C45.281 35.134 44.852 35.056 44.414 35.002C43.982 34.948 43.535 34.921 43.073 34.921C41.639 34.921 40.571 35.263 39.869 35.947C39.167 36.631 38.816 37.759 38.816 39.331C38.816 40.957 39.161 42.103 39.851 42.769C40.547 43.429 41.588 43.759 42.974 43.759C43.43 43.759 43.883 43.723 44.333 43.651C44.783 43.573 45.239 43.468 45.701 43.336V45.739C45.275 45.877 44.801 45.982 44.279 46.054C43.763 46.132 43.235 46.171 42.695 46.171ZM49.8186 46.18C48.8106 46.18 48.0246 45.919 47.4606 45.397C46.9026 44.875 46.6236 44.188 46.6236 43.336C46.6236 42.412 46.9446 41.689 47.5866 41.167C48.2286 40.639 49.2726 40.327 50.7186 40.231L52.3206 40.096V39.961C52.3206 39.283 52.1496 38.818 51.8076 38.566C51.4716 38.308 50.8956 38.179 50.0796 38.179C49.7016 38.179 49.2726 38.212 48.7926 38.278C48.3126 38.338 47.8536 38.437 47.4156 38.575V36.415C47.8956 36.277 48.4206 36.175 48.9906 36.109C49.5666 36.037 50.1006 36.001 50.5926 36.001C51.6366 36.001 52.4916 36.13 53.1576 36.388C53.8236 36.646 54.3156 37.078 54.6336 37.684C54.9576 38.284 55.1196 39.103 55.1196 40.141V46H52.7616L52.5636 45.019H52.4286C52.1286 45.421 51.7506 45.715 51.2946 45.901C50.8446 46.087 50.3526 46.18 49.8186 46.18ZM49.4496 43.057C49.4496 43.807 49.8846 44.182 50.7546 44.182C51.0186 44.182 51.2886 44.137 51.5646 44.047C51.8406 43.951 52.0926 43.789 52.3206 43.561V41.707L51.0066 41.815C50.4546 41.863 50.0556 41.992 49.8096 42.202C49.5696 42.406 49.4496 42.691 49.4496 43.057ZM61.5653 46.18C60.3773 46.18 59.4623 45.886 58.8203 45.298C58.1843 44.704 57.8663 43.765 57.8663 42.481V38.413H56.2643V36.154H57.8663L58.3883 32.68H60.7283V36.154H63.3203V38.413H60.7283V42.031C60.7283 42.709 60.8543 43.177 61.1063 43.435C61.3643 43.693 61.7783 43.822 62.3483 43.822C62.6243 43.822 62.9693 43.783 63.3833 43.705V45.973C63.1253 46.033 62.8343 46.081 62.5103 46.117C62.1863 46.159 61.8713 46.18 61.5653 46.18ZM69.6296 46.189C67.7756 46.189 66.4106 45.784 65.5346 44.974C64.6586 44.164 64.2206 42.862 64.2206 41.068C64.2206 39.436 64.6166 38.185 65.4086 37.315C66.2066 36.439 67.3346 36.001 68.7926 36.001C70.1906 36.001 71.2526 36.442 71.9786 37.324C72.7046 38.2 73.0676 39.478 73.0676 41.158V41.905H67.0916C67.1336 42.685 67.3706 43.234 67.8026 43.552C68.2346 43.864 68.9786 44.02 70.0346 44.02C70.4186 44.02 70.8206 43.993 71.2406 43.939C71.6666 43.879 72.0926 43.801 72.5186 43.705V45.856C71.9906 45.976 71.4926 46.06 71.0246 46.108C70.5566 46.162 70.0916 46.189 69.6296 46.189ZM68.7656 37.819C68.2316 37.819 67.8206 37.996 67.5326 38.35C67.2506 38.704 67.1006 39.34 67.0826 40.258H70.3946C70.3766 39.346 70.2296 38.713 69.9536 38.359C69.6836 37.999 69.2876 37.819 68.7656 37.819ZM78.192 50.14C77.67 50.14 77.124 50.107 76.554 50.041C75.984 49.981 75.432 49.879 74.898 49.735V47.494C75.444 47.644 75.978 47.755 76.5 47.827C77.022 47.899 77.511 47.935 77.967 47.935C78.927 47.935 79.623 47.755 80.055 47.395C80.493 47.035 80.712 46.435 80.712 45.595V44.947H80.577C80.295 45.295 79.938 45.568 79.506 45.766C79.074 45.964 78.582 46.063 78.03 46.063C77.358 46.063 76.731 45.895 76.149 45.559C75.567 45.223 75.096 44.701 74.736 43.993C74.382 43.285 74.205 42.379 74.205 41.275C74.205 39.577 74.667 38.275 75.591 37.369C76.515 36.457 77.916 36.001 79.794 36.001C80.424 36.001 81.078 36.049 81.756 36.145C82.434 36.235 83.043 36.37 83.583 36.55V45.073C83.583 46.855 83.139 48.145 82.251 48.943C81.363 49.741 80.01 50.14 78.192 50.14ZM79.119 43.732C79.407 43.732 79.692 43.684 79.974 43.588C80.256 43.492 80.502 43.342 80.712 43.138V38.296C80.556 38.26 80.376 38.23 80.172 38.206C79.974 38.182 79.764 38.17 79.542 38.17C78.75 38.17 78.144 38.392 77.724 38.836C77.304 39.274 77.094 40.006 77.094 41.032C77.094 42.076 77.277 42.787 77.643 43.165C78.015 43.543 78.507 43.732 79.119 43.732ZM90.0762 46.189C88.6062 46.189 87.4392 45.769 86.5752 44.929C85.7112 44.083 85.2792 42.808 85.2792 41.104C85.2792 39.388 85.7022 38.11 86.5482 37.27C87.3942 36.424 88.5702 36.001 90.0762 36.001C91.5822 36.001 92.7582 36.424 93.6042 37.27C94.4502 38.116 94.8732 39.388 94.8732 41.086C94.8732 42.796 94.4412 44.074 93.5772 44.92C92.7132 45.766 91.5462 46.189 90.0762 46.189ZM90.0762 44.011C90.6822 44.011 91.1502 43.807 91.4802 43.399C91.8162 42.985 91.9842 42.223 91.9842 41.113C91.9842 39.979 91.8162 39.205 91.4802 38.791C91.1442 38.377 90.6762 38.17 90.0762 38.17C89.4762 38.17 89.0082 38.377 88.6722 38.791C88.3362 39.199 88.1682 39.961 88.1682 41.077C88.1682 42.205 88.3332 42.976 88.6632 43.39C88.9992 43.804 89.4702 44.011 90.0762 44.011ZM96.5573 46V36.154H98.9063L99.1223 37.423H99.2663C99.5423 36.937 99.9083 36.583 100.364 36.361C100.82 36.133 101.321 36.019 101.867 36.019C102.017 36.019 102.161 36.025 102.299 36.037C102.437 36.049 102.56 36.067 102.668 36.091V38.683C102.518 38.653 102.356 38.635 102.182 38.629C102.014 38.617 101.852 38.611 101.696 38.611C101.276 38.611 100.853 38.692 100.427 38.854C100.001 39.01 99.6653 39.241 99.4193 39.547V46H96.5573ZM104.01 46V36.154H106.881V46H104.01ZM105.441 34.723C104.835 34.723 104.388 34.594 104.1 34.336C103.812 34.072 103.668 33.703 103.668 33.229C103.668 32.755 103.812 32.386 104.1 32.122C104.388 31.858 104.835 31.726 105.441 31.726C106.047 31.726 106.494 31.858 106.782 32.122C107.07 32.386 107.214 32.755 107.214 33.229C107.214 33.703 107.07 34.072 106.782 34.336C106.494 34.594 106.047 34.723 105.441 34.723ZM113.979 46.189C112.125 46.189 110.76 45.784 109.884 44.974C109.008 44.164 108.57 42.862 108.57 41.068C108.57 39.436 108.966 38.185 109.758 37.315C110.556 36.439 111.684 36.001 113.142 36.001C114.54 36.001 115.602 36.442 116.328 37.324C117.054 38.2 117.417 39.478 117.417 41.158V41.905H111.441C111.483 42.685 111.72 43.234 112.152 43.552C112.584 43.864 113.328 44.02 114.384 44.02C114.768 44.02 115.17 43.993 115.59 43.939C116.016 43.879 116.442 43.801 116.868 43.705V45.856C116.34 45.976 115.842 46.06 115.374 46.108C114.906 46.162 114.441 46.189 113.979 46.189ZM113.115 37.819C112.581 37.819 112.17 37.996 111.882 38.35C111.6 38.704 111.45 39.34 111.432 40.258H114.744C114.726 39.346 114.579 38.713 114.303 38.359C114.033 37.999 113.637 37.819 113.115 37.819ZM121.894 46.189C121.33 46.189 120.781 46.153 120.247 46.081C119.713 46.009 119.215 45.901 118.753 45.757V43.651C119.731 43.945 120.766 44.092 121.858 44.092C122.506 44.092 122.962 44.008 123.226 43.84C123.496 43.666 123.631 43.426 123.631 43.12C123.631 42.88 123.562 42.697 123.424 42.571C123.292 42.439 123.064 42.34 122.74 42.274L121.138 41.986C120.214 41.812 119.542 41.491 119.122 41.023C118.702 40.555 118.492 39.928 118.492 39.142C118.492 38.2 118.87 37.441 119.626 36.865C120.388 36.289 121.555 36.001 123.127 36.001C123.607 36.001 124.072 36.028 124.522 36.082C124.978 36.136 125.389 36.211 125.755 36.307V38.413C124.963 38.197 124.114 38.089 123.208 38.089C122.392 38.089 121.846 38.188 121.57 38.386C121.294 38.584 121.156 38.815 121.156 39.079C121.156 39.295 121.219 39.469 121.345 39.601C121.477 39.733 121.708 39.832 122.038 39.898L123.64 40.186C124.516 40.354 125.176 40.654 125.62 41.086C126.07 41.518 126.295 42.163 126.295 43.021C126.295 44.005 125.911 44.779 125.143 45.343C124.381 45.907 123.298 46.189 121.894 46.189Z" fill="black"/>
<defs>
<filter id="filter0_d" x="0" y="0" width="448" height="300" filterUnits="userSpaceOnUse" color-interpolation-filters="sRGB">
<feFlood flood-opacity="0" result="BackgroundImageFix"/>
<feColorMatrix in="SourceAlpha" type="matrix" values="0 0 0 0 0 0 0 0 0 0 0 0 0 0 0 0 0 0 127 0" result="hardAlpha"/>
<feOffset dy="2"/>
<feGaussianBlur stdDeviation="5"/>
<feColorMatrix type="matrix" values="0 0 0 0 0 0 0 0 0 0 0 0 0 0 0 0 0 0 0.05 0"/>
<feBlend mode="normal" in2="BackgroundImageFix" result="effect1_dropShadow"/>
<feBlend mode="normal" in="SourceGraphic" in2="effect1_dropShadow" result="shape"/>
</filter>
</defs>
</svg>
