<svg width="60" height="60" viewBox="0 0 60 60" fill="none" xmlns="http://www.w3.org/2000/svg">
<g filter="url(#filter0_d)">
<rect x="10" y="6" width="40" height="40" rx="20" fill="#F9A52A"/>
</g>
<path d="M33.75 26H37.5C37.6658 26 37.8247 26.0658 37.9419 26.1831C38.0592 26.3003 38.125 26.4592 38.125 26.625V31.625C38.125 31.7908 38.0592 31.9497 37.9419 32.0669C37.8247 32.1842 37.6658 32.25 37.5 32.25H22.5C22.3342 32.25 22.1753 32.1842 22.0581 32.0669C21.9408 31.9497 21.875 31.7908 21.875 31.625V26.625C21.875 26.4592 21.9408 26.3003 22.0581 26.1831C22.1753 26.0658 22.3342 26 22.5 26H26.25" stroke="white" stroke-width="1.5" stroke-linecap="round" stroke-linejoin="round"/>
<path d="M30 17.875V26" stroke="white" stroke-width="1.5" stroke-linecap="round" stroke-linejoin="round"/>
<path d="M26.25 22.25L30 26L33.75 22.25" stroke="white" stroke-width="1.5" stroke-linecap="round" stroke-linejoin="round"/>
<path d="M34.6875 30.0625C35.2053 30.0625 35.625 29.6428 35.625 29.125C35.625 28.6072 35.2053 28.1875 34.6875 28.1875C34.1697 28.1875 33.75 28.6072 33.75 29.125C33.75 29.6428 34.1697 30.0625 34.6875 30.0625Z" fill="white"/>
<defs>
<filter id="filter0_d" x="0" y="0" width="60" height="60" filterUnits="userSpaceOnUse" color-interpolation-filters="sRGB">
<feFlood flood-opacity="0" result="BackgroundImageFix"/>
<feColorMatrix in="SourceAlpha" type="matrix" values="0 0 0 0 0 0 0 0 0 0 0 0 0 0 0 0 0 0 127 0" result="hardAlpha"/>
<feOffset dy="4"/>
<feGaussianBlur stdDeviation="5"/>
<feColorMatrix type="matrix" values="0 0 0 0 0 0 0 0 0 0 0 0 0 0 0 0 0 0 0.05 0"/>
<feBlend mode="normal" in2="BackgroundImageFix" result="effect1_dropShadow"/>
<feBlend mode="normal" in="SourceGraphic" in2="effect1_dropShadow" result="shape"/>
</filter>
</defs>
</svg>
